,translate,listen,select,name,judge,form,speak,reverse_speak
1,61.111111111111114,38.888888888888886,0,0,0,0,0,0
2,66.66666666666667,27.77777777777778,0,0,5.555555555555555,0,0,0
3,61.111111111111114,38.888888888888886,0,0,0,0,0,0
4,61.111111111111114,33.333333333333336,0,0,5.555555555555555,0,0,0
5,66.66666666666667,11.11111111111111,0,0,22.22222222222222,0,0,0
6,61.111111111111114,38.888888888888886,0,0,0,0,0,0
7,66.66666666666667,22.22222222222222,0,0,11.11111111111111,0,0,0
8,66.66666666666667,16.666666666666668,0,0,16.666666666666668,0,0,0
9,66.66666666666667,22.22222222222222,0,0,11.11111111111111,0,0,0
10,61.111111111111114,33.333333333333336,0,0,5.555555555555555,0,0,0
11,66.66666666666667,16.666666666666668,0,0,16.666666666666668,0,0,0
12,83.33333333333333,5.555555555555555,0,0,11.11111111111111,0,0,0
13,61.111111111111114,33.333333333333336,0,0,5.555555555555555,0,0,0
14,83.33333333333333,5.555555555555555,0,0,11.11111111111111,0,0,0
15,66.66666666666667,11.11111111111111,0,0,22.22222222222222,0,0,0
16,61.111111111111114,38.888888888888886,0,0,0,0,0,0
17,77.77777777777777,16.666666666666668,0,0,5.555555555555555,0,0,0
18,66.66666666666667,22.22222222222222,0,0,11.11111111111111,0,0,0
19,61.111111111111114,33.333333333333336,0,0,5.555555555555555,0,0,0
20,83.33333333333333,5.555555555555555,0,0,11.11111111111111,0,0,0
21,66.66666666666667,22.22222222222222,0,0,11.11111111111111,0,0,0
22,61.111111111111114,33.333333333333336,0,0,5.555555555555555,0,0,0
23,83.33333333333333,5.555555555555555,0,0,11.11111111111111,0,0,0
24,61.111111111111114,33.333333333333336,0,0,5.555555555555555,0,0,0
25,61.111111111111114,33.333333333333336,0,0,5.555555555555555,0,0,0
26,66.66666666666667,22.22222222222222,0,0,11.11111111111111,0,0,0
27,83.33333333333333,5.555555555555555,0,0,11.11111111111111,0,0,0
28,83.33333333333333,5.555555555555555,0,0,11.11111111111111,0,0,0
29,77.77777777777777,16.666666666666668,0,0,5.555555555555555,0,0,0
30,72.22222222222223,22.22222222222222,0,0,5.555555555555555,0,0,0
31,66.66666666666667,11.11111111111111,0,0,22.22222222222222,0,0,0
32,66.66666666666667,11.11111111111111,0,0,22.22222222222222,0,0,0
33,66.66666666666667,27.77777777777778,0,0,5.555555555555555,0,0,0
34,77.77777777777777,16.666666666666668,0,0,5.555555555555555,0,0,0
35,83.33333333333333,5.555555555555555,0,0,11.11111111111111,0,0,0
36,72.22222222222223,22.22222222222222,0,0,5.555555555555555,0,0,0
37,66.66666666666667,11.11111111111111,0,0,22.22222222222222,0,0,0
38,66.66666666666667,27.77777777777778,0,0,5.555555555555555,0,0,0
39,61.111111111111114,38.888888888888886,0,0,0,0,0,0
40,77.77777777777777,16.666666666666668,0,0,5.555555555555555,0,0,0
41,66.66666666666667,11.11111111111111,0,0,22.22222222222222,0,0,0
42,61.111111111111114,33.333333333333336,0,0,5.555555555555555,0,0,0
43,83.33333333333333,5.555555555555555,0,0,11.11111111111111,0,0,0
44,66.66666666666667,11.11111111111111,0,0,22.22222222222222,0,0,0
45,72.22222222222223,22.22222222222222,0,0,5.555555555555555,0,0,0
46,66.66666666666667,11.11111111111111,0,0,22.22222222222222,0,0,0
47,72.22222222222223,22.22222222222222,0,0,5.555555555555555,0,0,0
48,66.66666666666667,11.11111111111111,0,0,22.22222222222222,0,0,0
49,66.66666666666667,22.22222222222222,0,0,11.11111111111111,0,0,0