,translate,listen,select,name,judge,form,speak,reverse_speak
1,72.22222222222223,22.22222222222222,0,0,5.555555555555555,0,0,0
2,66.66666666666667,22.22222222222222,0,0,11.11111111111111,0,0,0
3,72.22222222222223,22.22222222222222,0,0,5.555555555555555,0,0,0
4,77.77777777777777,16.666666666666668,0,0,5.555555555555555,0,0,0
5,76.47058823529412,11.764705882352942,0,0,11.764705882352942,0,0,0
6,83.33333333333333,11.11111111111111,0,0,5.555555555555555,0,0,0
7,66.66666666666667,16.666666666666668,0,0,16.666666666666668,0,0,0
8,66.66666666666667,27.77777777777778,0,0,5.555555555555555,0,0,0
9,64.70588235294117,35.294117647058826,0,0,0,0,0,0
10,66.66666666666667,27.77777777777778,0,0,5.555555555555555,0,0,0
11,66.66666666666667,16.666666666666668,0,0,16.666666666666668,0,0,0
12,83.33333333333333,11.11111111111111,0,0,5.555555555555555,0,0,0
13,77.77777777777777,16.666666666666668,0,0,5.555555555555555,0,0,0
14,66.66666666666667,16.666666666666668,0,0,16.666666666666668,0,0,0
15,66.66666666666667,22.22222222222222,0,0,11.11111111111111,0,0,0
16,66.66666666666667,22.22222222222222,0,0,11.11111111111111,0,0,0
17,83.33333333333333,11.11111111111111,0,0,5.555555555555555,0,0,0
18,66.66666666666667,27.77777777777778,0,0,5.555555555555555,0,0,0
19,66.66666666666667,22.22222222222222,0,0,11.11111111111111,0,0,0
20,77.77777777777777,22.22222222222222,0,0,0,0,0,0
21,66.66666666666667,16.666666666666668,0,0,16.666666666666668,0,0,0
22,83.33333333333333,11.11111111111111,0,0,5.555555555555555,0,0,0
23,72.22222222222223,22.22222222222222,0,0,5.555555555555555,0,0,0
24,83.33333333333333,11.11111111111111,0,0,5.555555555555555,0,0,0
25,66.66666666666667,16.666666666666668,0,0,16.666666666666668,0,0,0
26,66.66666666666667,27.77777777777778,0,0,5.555555555555555,0,0,0
27,66.66666666666667,16.666666666666668,0,0,16.666666666666668,0,0,0
28,66.66666666666667,22.22222222222222,0,0,11.11111111111111,0,0,0
29,72.22222222222223,22.22222222222222,0,0,5.555555555555555,0,0,0
30,83.33333333333333,11.11111111111111,0,0,5.555555555555555,0,0,0
31,66.66666666666667,27.77777777777778,0,0,5.555555555555555,0,0,0
32,77.77777777777777,22.22222222222222,0,0,0,0,0,0
33,66.66666666666667,27.77777777777778,0,0,5.555555555555555,0,0,0
34,66.66666666666667,22.22222222222222,0,0,11.11111111111111,0,0,0
35,83.33333333333333,11.11111111111111,0,0,5.555555555555555,0,0,0
36,77.77777777777777,22.22222222222222,0,0,0,0,0,0
37,77.77777777777777,16.666666666666668,0,0,5.555555555555555,0,0,0
38,77.77777777777777,22.22222222222222,0,0,0,0,0,0
39,66.66666666666667,16.666666666666668,0,0,16.666666666666668,0,0,0
40,83.33333333333333,11.11111111111111,0,0,5.555555555555555,0,0,0
41,77.77777777777777,16.666666666666668,0,0,5.555555555555555,0,0,0
42,66.66666666666667,16.666666666666668,0,0,16.666666666666668,0,0,0
43,72.22222222222223,22.22222222222222,0,0,5.555555555555555,0,0,0
44,66.66666666666667,22.22222222222222,0,0,11.11111111111111,0,0,0
45,77.77777777777777,16.666666666666668,0,0,5.555555555555555,0,0,0
46,72.22222222222223,22.22222222222222,0,0,5.555555555555555,0,0,0
47,72.22222222222223,22.22222222222222,0,0,5.555555555555555,0,0,0
48,66.66666666666667,16.666666666666668,0,0,16.666666666666668,0,0,0
49,83.33333333333333,11.11111111111111,0,0,5.555555555555555,0,0,0