,translate,listen,select,name,judge,form,speak,reverse_speak
1,72.22222222222223,22.22222222222222,0,0,5.555555555555555,0,0,0
2,66.66666666666667,27.77777777777778,0,0,5.555555555555555,0,0,0
3,72.22222222222223,27.77777777777778,0,0,0,0,0,0
4,72.22222222222223,22.22222222222222,0,0,5.555555555555555,0,0,0
5,83.33333333333333,16.666666666666668,0,0,0,0,0,0
6,83.33333333333333,16.666666666666668,0,0,0,0,0,0
7,66.66666666666667,27.77777777777778,0,0,5.555555555555555,0,0,0
8,77.77777777777777,16.666666666666668,0,0,5.555555555555555,0,0,0
9,77.77777777777777,16.666666666666668,0,0,5.555555555555555,0,0,0
10,83.33333333333333,11.11111111111111,0,0,5.555555555555555,0,0,0
11,66.66666666666667,27.77777777777778,0,0,5.555555555555555,0,0,0
12,72.22222222222223,22.22222222222222,0,0,5.555555555555555,0,0,0
13,72.22222222222223,27.77777777777778,0,0,0,0,0,0
14,72.22222222222223,27.77777777777778,0,0,0,0,0,0
15,72.22222222222223,22.22222222222222,0,0,5.555555555555555,0,0,0
16,72.22222222222223,27.77777777777778,0,0,0,0,0,0
17,83.33333333333333,16.666666666666668,0,0,0,0,0,0
18,77.77777777777777,16.666666666666668,0,0,5.555555555555555,0,0,0
19,72.22222222222223,27.77777777777778,0,0,0,0,0,0
20,72.22222222222223,27.77777777777778,0,0,0,0,0,0
21,83.33333333333333,11.11111111111111,0,0,5.555555555555555,0,0,0
22,83.33333333333333,11.11111111111111,0,0,5.555555555555555,0,0,0
23,77.77777777777777,16.666666666666668,0,0,5.555555555555555,0,0,0
24,72.22222222222223,27.77777777777778,0,0,0,0,0,0
25,72.22222222222223,22.22222222222222,0,0,5.555555555555555,0,0,0
26,72.22222222222223,22.22222222222222,0,0,5.555555555555555,0,0,0
27,72.22222222222223,22.22222222222222,0,0,5.555555555555555,0,0,0
28,66.66666666666667,33.333333333333336,0,0,0,0,0,0
29,66.66666666666667,27.77777777777778,0,0,5.555555555555555,0,0,0
30,77.77777777777777,16.666666666666668,0,0,5.555555555555555,0,0,0
31,72.22222222222223,27.77777777777778,0,0,0,0,0,0
32,77.77777777777777,16.666666666666668,0,0,5.555555555555555,0,0,0
33,77.77777777777777,16.666666666666668,0,0,5.555555555555555,0,0,0
34,83.33333333333333,16.666666666666668,0,0,0,0,0,0
35,66.66666666666667,33.333333333333336,0,0,0,0,0,0
36,83.33333333333333,11.11111111111111,0,0,5.555555555555555,0,0,0
37,83.33333333333333,16.666666666666668,0,0,0,0,0,0
38,61.111111111111114,38.888888888888886,0,0,0,0,0,0
39,77.77777777777777,16.666666666666668,0,0,5.555555555555555,0,0,0
40,72.22222222222223,27.77777777777778,0,0,0,0,0,0
41,72.22222222222223,27.77777777777778,0,0,0,0,0,0
42,77.77777777777777,16.666666666666668,0,0,5.555555555555555,0,0,0
43,83.33333333333333,11.11111111111111,0,0,5.555555555555555,0,0,0
44,61.111111111111114,38.888888888888886,0,0,0,0,0,0
45,83.33333333333333,11.11111111111111,0,0,5.555555555555555,0,0,0
46,83.33333333333333,11.11111111111111,0,0,5.555555555555555,0,0,0
47,83.33333333333333,11.11111111111111,0,0,5.555555555555555,0,0,0
48,83.33333333333333,16.666666666666668,0,0,0,0,0,0
49,72.22222222222223,27.77777777777778,0,0,0,0,0,0