,translate,listen,select,name,judge,form,speak,reverse_speak
1,55.55555555555556,11.11111111111111,22.22222222222222,11.11111111111111,0,0,0,0
2,50,16.666666666666668,16.666666666666668,16.666666666666668,0,0,0,0
3,50,11.11111111111111,16.666666666666668,16.666666666666668,5.555555555555555,0,0,0
4,61.111111111111114,5.555555555555555,11.11111111111111,22.22222222222222,0,0,0,0
5,61.111111111111114,16.666666666666668,16.666666666666668,5.555555555555555,0,0,0,0
6,55.55555555555556,5.555555555555555,16.666666666666668,16.666666666666668,5.555555555555555,0,0,0
7,50,5.555555555555555,16.666666666666668,22.22222222222222,5.555555555555555,0,0,0
8,55.55555555555556,11.11111111111111,11.11111111111111,22.22222222222222,0,0,0,0
9,50,11.11111111111111,22.22222222222222,16.666666666666668,0,0,0,0
10,55.55555555555556,5.555555555555555,11.11111111111111,22.22222222222222,5.555555555555555,0,0,0
11,55.55555555555556,11.11111111111111,16.666666666666668,16.666666666666668,0,0,0,0
12,55.55555555555556,11.11111111111111,22.22222222222222,5.555555555555555,5.555555555555555,0,0,0
13,55.55555555555556,11.11111111111111,16.666666666666668,16.666666666666668,0,0,0,0
14,55.55555555555556,16.666666666666668,16.666666666666668,11.11111111111111,0,0,0,0
15,50,16.666666666666668,11.11111111111111,22.22222222222222,0,0,0,0
16,50,11.11111111111111,16.666666666666668,22.22222222222222,0,0,0,0
17,66.66666666666667,5.555555555555555,16.666666666666668,11.11111111111111,0,0,0,0
18,55.55555555555556,11.11111111111111,22.22222222222222,11.11111111111111,0,0,0,0
19,61.111111111111114,5.555555555555555,11.11111111111111,22.22222222222222,0,0,0,0
20,66.66666666666667,0,11.11111111111111,22.22222222222222,0,0,0,0
21,50,11.11111111111111,16.666666666666668,16.666666666666668,5.555555555555555,0,0,0
22,61.111111111111114,5.555555555555555,11.11111111111111,22.22222222222222,0,0,0,0
23,55.55555555555556,16.666666666666668,5.555555555555555,22.22222222222222,0,0,0,0
24,61.111111111111114,5.555555555555555,11.11111111111111,22.22222222222222,0,0,0,0
25,55.55555555555556,16.666666666666668,16.666666666666668,11.11111111111111,0,0,0,0
26,44.44444444444444,22.22222222222222,16.666666666666668,16.666666666666668,0,0,0,0
27,50,16.666666666666668,22.22222222222222,11.11111111111111,0,0,0,0
28,50,16.666666666666668,16.666666666666668,16.666666666666668,0,0,0,0
29,50,16.666666666666668,11.11111111111111,22.22222222222222,0,0,0,0
30,50,11.11111111111111,16.666666666666668,22.22222222222222,0,0,0,0
31,61.111111111111114,5.555555555555555,11.11111111111111,22.22222222222222,0,0,0,0
32,50,16.666666666666668,11.11111111111111,22.22222222222222,0,0,0,0
33,66.66666666666667,0,11.11111111111111,22.22222222222222,0,0,0,0
34,50,16.666666666666668,16.666666666666668,16.666666666666668,0,0,0,0
35,50,11.11111111111111,22.22222222222222,11.11111111111111,5.555555555555555,0,0,0
36,55.55555555555556,11.11111111111111,16.666666666666668,16.666666666666668,0,0,0,0
37,61.111111111111114,5.555555555555555,16.666666666666668,16.666666666666668,0,0,0,0
38,55.55555555555556,11.11111111111111,16.666666666666668,16.666666666666668,0,0,0,0
39,44.44444444444444,16.666666666666668,16.666666666666668,16.666666666666668,5.555555555555555,0,0,0
40,50,11.11111111111111,16.666666666666668,16.666666666666668,5.555555555555555,0,0,0
41,44.44444444444444,16.666666666666668,11.11111111111111,22.22222222222222,5.555555555555555,0,0,0
42,38.888888888888886,33.333333333333336,22.22222222222222,5.555555555555555,0,0,0,0
43,55.55555555555556,11.11111111111111,16.666666666666668,16.666666666666668,0,0,0,0
44,66.66666666666667,5.555555555555555,5.555555555555555,22.22222222222222,0,0,0,0
45,61.111111111111114,0,11.11111111111111,22.22222222222222,5.555555555555555,0,0,0
46,55.55555555555556,5.555555555555555,11.11111111111111,22.22222222222222,5.555555555555555,0,0,0
47,55.55555555555556,11.11111111111111,11.11111111111111,22.22222222222222,0,0,0,0
48,61.111111111111114,5.555555555555555,16.666666666666668,16.666666666666668,0,0,0,0
49,61.111111111111114,5.555555555555555,11.11111111111111,22.22222222222222,0,0,0,0