ID,Objectives,người thực hiện,Dịch nghĩa
1,persons,quynh dn,những con người
2,babies,quynh dn,"những em bé
những đứa trẻ"
3,friend,quynh dn,người bạn
4,boyfriends,quynh dn,những bạn trai
5,girlfriends,quynh dn,những bạn gái
6,public,quynh dn,"công chúng
công khai
công cộng"
7,enemy,quynh dn,"kẻ thù
thì giờ"
8,human,quynh dn,"con người
thuộc loài người"
9,committees,quynh dn,những ủy ban
10,conferences,quynh dn,"sự bàn bạc
sự hội ý
hội nghị"
11,cultures,quynh dn,"văn hóa
văn minh
sự trồng trọt"
12,foundations,quynh dn,"sự sáng lập
nền tảng
tổ chức"
13,population,quynh dn,"dân số
dân cư"
14,youth,quynh dn,"tuổi trẻ
thanh niên"
15,relationships,quynh dn,những mối quan hệ
16,village,quynh dn,"làng, xã"
17,individuals,quynh dn,những cá nhân
18,couples,quynh dn,"những cặp đôi
kết đôi"
19,ladies,quynh dn,những quý bà
20,citizen,quynh dn,"công dân
người thành thị"
21,victim,quynh dn,nạn nhân
22,people,quynh dn,"người
dân tộc
quần chúng"
23,talk,quynh dn,"nói
lời nói"
24,meet,quynh dn,"cuộc gặp gỡ
gặp gỡ
đáp ứng"
25,feel,quynh dn,"cảm thấy
sự sờ mó"
26,cover,quynh dn,"che phủ
vỏ bọc"
27,choose,quynh dn,lựa chọn
28,remember,quynh dn,nhớ
29,increase,quynh dn,"tăng thêm
sự tăng thêm"
30,stay,quynh dn,"ở lại
sự lưu lại"
31,build,quynh dn,"xây dựng
sự xây dựng"
32,continue,quynh dn,tiếp tục
33,apply,quynh dn,"áp dụng
xin, thỉnh cầu"
34,stop,quynh dn,"sự ngừng lại
ngừng lại"
35,believe,quynh dn,tin tưởng
36,leave,quynh dn,"sự cho phép
để lại
bỏ đi, rời đi"
37,though,quynh dn,mặc dù
38,answer,quynh dn,"trả lời 
sự trả lời"
39,how,quynh dn,"như thế nào
cách làm"
40,allow,quynh dn,cho phép
41,win,quynh dn,"sự thắng cuộc
chiếm, đoạt được
thắng cuộc"
42,improve,quynh dn,cải tiến
43,cut,quynh dn,cắt
44,repeat,quynh dn,"sự lặp lại
lặp lại
tái diễn"
45,wake,quynh dn,"thức dậy
dánh thức"
46,understand,quynh dn,hiểu
47,let,quynh dn,để cho
48,lets,quynh dn,để cho
49,consider,quynh dn,"cân nhắc
xem như"
50,develop,quynh dn,phát triển
51,die,quynh dn,chết
52,agree,quynh dn,đồng ý
53,appear,quynh dn,xuất hiện
54,fit,quynh dn,"hợp, vừa
sự làm cho vừa"
55,count,quynh dn,"đếm, tính"
56,miss,quynh dn,"nhớ
bỏ lỡ"
57,accept,quynh dn,chấp nhận
58,begin,quynh dn,bắt đầu
59,avoid,quynh dn,tránh
60,prevent,quynh dn,ngăn ngừa
61,produce,quynh dn,"sản xuất
sản lượng
"
62,serve,quynh dn,phục vụ
63,wait,quynh dn,"chờ đợi
sự chờ đợi"
64,define,quynh dn,"định nghĩa
xác định"
65,reach,quynh dn,"sự với, tầm với
với lấy"
66,finish,quynh dn,"kết thúc
 sự kết thúc"
67,beat,quynh dn,"sự đập, tiếng đập
đánh đập"
68,achieve,quynh dn,đạt được
69,exist,quynh dn,tồn tại
70,affect,quynh dn,ảnh hưởng đến
71,explain,quynh dn,giải thích
72,assume,quynh dn,làm ra vẻ
73,respond,quynh dn,đáp lại
74,lose,quynh dn,"mất
bỏ lỡ
thua"
75,forget,quynh dn,quên
76,prepare,quynh dn,chuẩn bị
77,hate,quynh dn,ghét
78,introduce,quynh dn,giới thiệu
79,shut,quynh dn,"đóng, khép"
80,belong,quynh dn,thuộc về
81,suffer,quynh dn,"chịu, bị
đau đớn"
82,recover,quynh dn,"lấy lại, giành lại
bình phục"
83,analyze,quynh dn,phân tích
84,read,quynh dn,đọc
85,eat,quynh dn,ăn
86,drink,quynh dn,uống
87,will,quynh dn,"sẽ
ý chí
định"
88,have,quynh dn,có
89,found,quynh dn,"sáng lập
tìm kiếm"
90,called,quynh dn,"gọi, triệu tập
sự kêu gọi"
91,received,quynh dn,nhận
92,created,quynh dn,tạo ra
93,taken,quynh dn,"sự cầm, nắm
cầm, nắm giữ"
94,sent,quynh dn,gửi
95,died,quynh dn,chết
96,decided,quynh dn,quyết định
97,chosen,quynh dn,lựa chọn
98,returned,quynh dn,"trở lại
sự trở lại"
99,what,quynh dn,"cái gì
cái mà"
100,where,quynh dn,ở đâu
101,why,quynh dn,tại sao
102,who,quynh dn,"ai
người mà"
103,whose,quynh dn,"của ai
của người mà"
104,which,quynh dn,"nào
cái mà"
105,when,quynh dn,"khi nào
khi"
106,question,quynh dn,"câu hỏi
hỏi"
107,do,quynh dn,"làm
thực hiện"
108,does,quynh dn,"làm
thực hiện"
109,powers,quynh dn,"sức mạnh
quyền lực"
110,quality,quynh dn,"chất lượng
phẩm chất"
111,looks,quynh dn,"nhìn
chú ý"
112,beauty,quynh dn,vẻ đẹp
113,forces,quynh dn,"sức mạnh
ép buộc
thác nước"
114,difference,quynh dn,"sự khác nhau
phân biệt"
115,identity,quynh dn,"tính đồng nhất
sự giống hệt"
116,expression,quynh dn,"sự thể hiện
thành ngữ"
117,importance,quynh dn,sự quan trọng
118,luck,quynh dn,"vận
vận may"
119,personality,quynh dn,"nhân cách
nhân vật"
120,advantage,quynh dn,sự thuận lợi
121,ball,quynh dn,"quả bóng
cuộn lại
buổi khiêu vũ"
122,walk,quynh dn,"đi bộ
sự đi bộ"
123,sport,quynh dn, thể thao
124,team,quynh dn,"đội
hợp thành đội"
125,player,quynh dn,người chơi
126,step,quynh dn,"bước
bước đi"
127,paths,quynh dn,"con đường
lối đi"
128,goals,quynh dn,"gôn
bàn thắng
mục tiêu"
129,points,quynh dn,"điểm
mũi nhọn
chỉ, trỏ"
130,games,quynh dn,trò chơi
131,scored,quynh dn,"điểm
ghi điểm"
132,football,quynh dn,bóng đá
133,basketball,quynh dn,bóng chày
134,tennis,quynh dn,quần vợt
135,racket,quynh dn,"cái vợt
môn quần vợt sân trường"
136,volleyball,quynh dn,bóng chuyền
137,kick,quynh dn,"đá
cú đá"
138,jump,quynh dn,nhảy
139,jumps,quynh dn,nhảy
140,coach,quynh dn,"huấn luyện
huấn luyện viên"
141,exercise,quynh dn,tập luyện
142,matches,quynh dn,cuộc đấu
143,marathon,quynh dn,cuộc chạy đua
144,exercises,quynh dn,tập luyện
145,gym,quynh dn,thể dục
146,championship,quynh dn,chức vô địch
147,athlete,quynh dn,vận động viên
148,swimming,quynh dn,bơi
149,write,quynh dn,viết
150,writes,quynh dn,viết
151,walks,quynh dn,đi bộ
152,swims,quynh dn,bơi
153,swim,quynh dn,bơi
154,see,quynh dn,"nhìn
trông thấy"
155,sees,quynh dn,"nhìn thấy
nhận ra
tưởng tượng"
156,cook,quynh dn,nấu
157,cooks,quynh dn,nấu
158,sleep,quynh dn,ngủ
159,sleeps,quynh dn,ngủ
160,run,quynh dn,chạy
161,runs,quynh dn,chạy
162,want,quynh dn,muốn
163,wants,quynh dn,muốn
164,like,quynh dn,"thích
giống như"
165,likes,quynh dn,thích
166,pay,quynh dn,trả tiền
167,pays,quynh dn,trả tiền
168,goes,quynh dn,đi
169,go,quynh dn,đi
170,play,quynh dn,chơi
171,plays,quynh dn,chơi
172,use,quynh dn,sử dụng
173,love,quynh dn,"yêu
tình yêu"
174,loves,quynh dn,"yêu
tình yêu"
175,rains,quynh dn,mưa
176,touch,quynh dn,"chạm
sự sờ mó
xúc giác"
177,hear,quynh dn,nghe
178,listen,quynh dn,lắng nghe
179,hears,quynh dn,nghe thấy
180,listens,quynh dn,nghe
181,say,quynh dn,nói
182,says,quynh dn,nói
183,tell,quynh dn,"nói ra
kể"
184,make,quynh dn,làm
185,find,quynh dn,tìm 
186,work,quynh dn,làm việc
187,support,quynh dn,"sự ủng hộ
ủng hộ
chịu đựng"
188,need,quynh dn,"cần
sự cần"
189,know,quynh dn,"biết
hiểu biết"
190,take,quynh dn,"sự cầm, nắm
cầm, nắm giữ"
191,design,quynh dn,"phác họa
thiết kế
ý định
cách sắp xếp"
192,show,quynh dn,"sự trưng bày
cho xem, trưng bày
hiện ra"
193,his,quynh dn,của anh ấy
194,her,quynh dn,của cô ấy
195,my,quynh dn,của tôi
196,its,quynh dn,của nó
197,their,quynh dn,của bọn họ
198,our,quynh dn,của chúng tôi
199,your,quynh dn,của bạn
200,',quynh dn,của
201,yours,quynh dn,cái cuả bạn
202,'s,quynh dn,của
203,ours,quynh dn,cái của chúng ta
204,mine,quynh dn,cái của tôi
205,big,quynh dn,"to
quan trọng"
206,small,quynh dn, nhỏ bé
207,good,quynh dn,"tốt
điều tốt"
208,great,quynh dn,"tuyệt
vĩ đại"
209,new,quynh dn,mới
210,old,quynh dn,"già
cũ"
211,than,quynh dn,hơn
212,young,quynh dn,"trẻ 
non nớt"
213,smaller,quynh dn,"nhỏ hơn
bé hơn"
214,bigger,quynh dn,to hơn
215,older,quynh dn,"già hơn
cũ hơn"
216,younger,quynh dn,"trẻ hơn
non nớt hơn"
217,pretty,quynh dn,"xinh xắn
thú vị"
218,less,quynh dn,"ít hơn
kém"
219,prettier,quynh dn,"xinh xắn hơn
thú vị hơn"
220,free,quynh dn,"Miễn phí
Tự do"
221,best,quynh dn,tốt nhất
222,full,quynh dn,"đầy đủ
chật
toàn bộ"
223,long,quynh dn,"dài
lâu"
224,large,quynh dn,"rộng
rộng rãi"
225,cleaner,quynh dn,"sạch hơn
máy hút bụi
người lau dọn"
226,cheaper,quynh dn,rẻ hơn
227,hot,quynh dn,"nóng
nóng nảy
sôi nổi"
228,better,quynh dn,tốt hơn
229,hard,quynh dn,"cứng rắn
khó khăn
khăc nghiệt"
230,able,quynh dn,"có năng lực
có khả năng"
231,short,quynh dn,"ngắn
thấp"
232,bad,quynh dn,"xấu
vận xấu
có hại"
233,true,quynh dn,"thật
đúng"
234,fast,quynh dn,"nhanh
chắc chắn"
235,clear,quynh dn,"trong trẻo, trong sạch
rõ ràng"
236,simple,quynh dn,đơn giản
237,nice,quynh dn,"xinh đẹp
tử tế
dễ chịu"
238,happy,quynh dn,hạnh phúc
239,strong,quynh dn,"khỏe
bền vững"
240,deep,quynh dn,sâu
241,poor,quynh dn,"nghèo
yếu kém
tội nghiệp"
242,fair,quynh dn,"hợp lý
công bằng
hội chợ"
243,cold,quynh dn,"lạnh
lạnh nhạt"
244,rich,quynh dn,giàu có
245,sweet,quynh dn,"ngọt
dễ thương"
246,sharp,quynh dn,"sắc
rõ rệt
sắc nét"
247,pure,quynh dn,"trong sach
thuần túy"
248,worse,quynh dn,"xấu hơn
tệ hơn"
249,worst,quynh dn,"xấu nhất
tệ nhất"
250,weak,quynh dn,"yếu
nhu nhược"
251,tall,quynh dn,cao
252,alone,quynh dn,"một mình
cô độc"
253,ready,quynh dn,sẵn sàng
254,sure,quynh dn,"chắc chắn
thật"
255,apples,quynh dn,những quả táo
256,books,quynh dn,"những quyển sách
đặt trước"
257,newspapers,quynh dn,"báo
tờ báo"
258,cats,quynh dn,những con mèo
259,dogs,quynh dn,những con chó
260,horses,quynh dn,những con ngựa
261,elephants,quynh dn,những con voi
262,ducks,quynh dn,những con vịt
263,turtles,quynh dn,những con rùa
264,animals,quynh dn,những con vật
265,birds,quynh dn,những con chim
266,plates,quynh dn,những chiếc đĩa
267,sandwiches,quynh dn,những cái bánh kẹp ( sandwich)
268,that,quynh dn,"đó
kia"
269,this,quynh dn,này
270,one,quynh dn,"một
một người nào đó"
271,these,quynh dn,này (số nhiều)
272,those,quynh dn,"đó
kia (số nhiều)"
273,no,quynh dn,không
274,all,quynh dn,"tất cả
toàn bộ"
275,everybody,quynh dn,mọi người
276,every,quynh dn,"mỗi
mọi"
277,any,quynh dn,"bất cứ
một (người,vật) nào đó
chút nào"
278,other,quynh dn,"khác
kia
người/vật/cái khác"
279,another,quynh dn,"khác
nữa
người/vật/cái khác"
280,each,quynh dn,"mỗi
mỗi người/vật/cái"
281,something,quynh dn,điều/việc/cái gì đó
282,such,quynh dn,"như vậy
quả là
đến nỗi
cái/điều/thứ đó"
283,both,quynh dn,cả hai
284,few,quynh dn,"ít
vài"
285,everything,quynh dn,"mọi thứ
tất cả"
286,none,quynh dn,"không người nào 
không vật gì
không chút nào"
287,someone,quynh dn,một người nào đó
288,nothing,quynh dn,"không cái gì
sự không có
không chút nào"
289,anything,quynh dn,"vật/việc gì
bất cứ việc
vật gì"
290,everyone,quynh dn,"mọi người
mỗi người"
291,nobody,quynh dn,"không ai
 không người nào"
292,anybody,quynh dn,"người nào/ai
bất kì ai"
293,fish,quynh dn,"con cá
câu cá"
294,orange,quynh dn,"quả cam
màu da cam"
295,wine,quynh dn,rượu
296,coffee,quynh dn,cà phê
297,egg,quynh dn,trứng
298,chicken,quynh dn,"gà
thịt gà"
299,plate,quynh dn,đĩa
300,sugar,quynh dn,"đường
rắc đường"
301,lunch,quynh dn,bữa trưa
302,breakfast,quynh dn,bữa sáng
303,cheese,quynh dn,pho mát
304,fruit,quynh dn,"quả
trái cây"
305,pasta,quynh dn,mì Ý
306,juice,quynh dn,nước ép 
307,beer,quynh dn,bia
308,beef,quynh dn,thịt bò
309,soup,quynh dn,"súp
canh"
310,tomato,quynh dn,quả cà chua
311,strawberry,quynh dn,quả dâu tây
312,lemon,quynh dn,"quả chanh
cây chanh"
313,food,quynh dn,thức ăn
314,oil,quynh dn,dầu
315,dinner,quynh dn,"bữa tối
tiệc chiêu đãi"
316,salt,quynh dn,muối
317,meat,quynh dn,thịt
318,meal,quynh dn,"bữa ăn
ăn"
319,tea,quynh dn,trà
320,pork,quynh dn,thịt lợn
321,vegetarian,quynh dn,"ăn chay
người ăn chay"
322,boys,quynh dn,những cậu con trai
323,girls,quynh dn,những cô gái
324,we,quynh dn,"chúng tôi
chúng ta"
325,newspaper,quynh dn,báo
326,men,quynh dn,"đàn ông
con người"
327,women,quynh dn,"đàn bà
phụ nữ"
328,you,quynh dn,bạn
329,are,quynh dn,"thì
là
bị
ở"
330,milk,quynh dn,sữa
331,sandwich,quynh dn,bánh kẹp ( sandwich)
332,rice,quynh dn,"lúa
gạo
cơm
cây lúa"
333,they,quynh dn,"họ
người ta"
334,child,quynh dn,"đứa trẻ
đứa con"
335,reads,quynh dn,đọc
336,book,quynh dn,"quyển sách
đặt trước"
337,menu,quynh dn,thực đơn
338,it,quynh dn,"nó
cái đó
điều đó"
339,children,quynh dn,"đứa trẻ
đứa con (số nhiều)"
340,has,quynh dn,có
341,can,quynh dn,"có thể
can/vỏ đồ hộp"
342,cannot,quynh dn,không thể
343,may,quynh dn,"có thể
có lẽ"
344,could,quynh dn,có thể (quá khứ của can)
345,must,quynh dn,"phải 
nên
cần thiết"
346,would,quynh dn,"sẽ
ý chí
định (quá khứ của will)"
347,should,quynh dn,sẽ
348,searches,quynh dn,"tìm 
nghiên cứu"
349,information,quynh dn,"tin tức
sự cung cấp thông tin"
350,comment,quynh dn,"bình luận
chú giải"
351,network,quynh dn,mạng lưới
352,press,quynh dn,"báo chí
ép"
353,texts,quynh dn,"văn bản
nguyên văn"
354,stories,quynh dn,"truyện
câu chuyện"
355,channels,quynh dn,"những kênh
những eo biển"
356,communication,quynh dn,"sự giao thiệp
sự truyền đạt"
357,news,quynh dn,tin tức
358,messages,quynh dn,"thông điệp
thư tín"
359,internet,quynh dn,mạng
360,language,quynh dn,ngôn ngữ
361,postcards,quynh dn,bưu thiếp
362,stamps,quynh dn,tem
363,access,quynh dn,"lối vào
sự tiếp cận"
364,journalists,quynh dn,nhà báo
365,man,quynh dn,"đàn ông
con người"
366,woman,quynh dn,"dàn bà
phụ nữ"
367,I,quynh dn,Tôi
368,am,quynh dn,"thì
là
bị
ở"
369,a,quynh dn,một
370,boy,quynh dn,con trai
371,girl,quynh dn,con gái
372,he,quynh dn,anh ấy
373,is,quynh dn,"thì
là
bị
ở"
374,she,quynh dn,cô ấy
375,an,quynh dn,một
376,apple,quynh dn,quả táo
377,and,quynh dn,và
378,eats,quynh dn,ăn
379,the,quynh dn,"cái/con/người
ấy/này"
380,bread,quynh dn,bánh mì
381,drinks,quynh dn,uống
382,water,quynh dn,nước
383,add,quynh dn,thêm vào
384,be,quynh dn,"thì
là
bị
ở"
385,break,quynh dn,"làm vỡ
gián đoạn"
386,change,quynh dn,"thay đổi
đổi chác
sự thay đổi"
387,come,quynh dn,đến
388,call,quynh dn,"gọi
tiếng gọi"
389,fall,quynh dn,"rơi
sự rơi"
390,follow,quynh dn,theo sau
391,get,quynh dn,"được
có được"
392,arrive,quynh dn,đến
393,give,quynh dn,"cho
biếu
tặng"
394,happen,quynh dn,xảy ra
395,help,quynh dn,giúp đỡ
396,learn,quynh dn,học
397,look,quynh dn,"nhìn
chú ý"
398,offer,quynh dn,"tặng
sự chào hàng"
399,present,quynh dn,"giới thiệu
hiện tại
có mặt"
400,rain,quynh dn,mưa
401,receive,quynh dn,nhận
402,reduce,quynh dn,giảm bớt
403,return,quynh dn,quay trở lại
404,sell,quynh dn,bán
405,start,quynh dn,băt đầu
406,think,quynh dn,"nghĩ
suy nghĩ"
407,try,quynh dn,"cố gắng
thử"
408,watch,quynh dn,"xem
trông nom
đồng hồ đeo tay"
409,register,quynh dn,"sổ sách
ghi vào sổ"
410,travel,quynh dn,"du lịch
đi lại"
411,travels,quynh dn,"du lịch
đi lại"
412,car,quynh dn,ô tô
413,bicycle,quynh dn,xe đạp
414,suitcases,quynh dn,những cái va li
415,buses,quynh dn,những chiếc xe bus
416,train,quynh dn,tàu hỏa
417,motorcycles,quynh dn,những chiếc xe mô tô
418,boats,quynh dn,những chiếc thuyền
419,airplanes,quynh dn,những chiếc máy bay
420,drive,quynh dn,lái xe
421,backpacks,quynh dn,những chiếc ba lô đeo vai
422,guides,quynh dn,những người hướng dẫn
423,visit,quynh dn,"thăm
tham quan"
424,spanish,quynh dn,"tiếng tây ban nha
người tây ban nha
thuộc tây ban nha"
425,portuguese,quynh dn,"tiếng bồ đào nha
người bồ đào nha
thuộc bồ đào nha"
426,map,quynh dn,bản đồ
427,road,quynh dn,con đường
428,ships,quynh dn,những chiếc tàu thủy
429,vehicles,quynh dn,các phương tiện
430,transportation,quynh dn,"sự vận tải
sự chuyên chở"
431,trips,quynh dn,những chuyến đi chơi
432,italians,quynh dn,những người Ý
433,french,quynh dn,"tiếng Pháp
người Pháp
thuộc Pháp"
434,flights,quynh dn,những chuyến bay
435,adventures,quynh dn,những cuộc phiêu lưu
436,bridge,quynh dn,cây cầu
437,planes,quynh dn,nhưng chiếc máy bay
438,journey,quynh dn,"cuộc hành trình
chặng đường đi"
439,german,quynh dn,"người đức
tiếng đức
thuộc đức"
440,departures,quynh dn,"sự khởi hành 
sự xuất phát "
441,tourist,quynh dn,khách du lịch
442,subway,quynh dn,xe điện ngầm
443,America,quynh dn,nước Mỹ
444,France,quynh dn,nước pháp
445,Germany,quynh dn,nước Đức
446,England,quynh dn,Nước Anh
447,Europe,quynh dn,Châu Âu
448,China,quynh dn,Trung Quốc
449,abroad,quynh dn,nước ngoài
450,south,quynh dn,phía nam
451,italian,quynh dn,"tiếng Ý 
người Ý
thuộc Ý"
452,chinese,quynh dn,"tiếng trung quốc
người trung quốc
thuộc trung quốc"
453,international,quynh dn,quốc tế
454,american,quynh dn,"người Mỹ
thuộc nước Mỹ"
455,european,quynh dn,thuộc châu Âu
456,around,quynh dn,xung quanh
457,turn,quynh dn,"quay
sự đổi hướng"
458,turns,quynh dn,quay
459,passport,quynh dn,hộ chiếu
460,was,quynh dn,"thì
là
bị
ở"
461,were,quynh dn,"thì
là
bị
ở"
462,ate,quynh dn,đã ăn
463,drank,quynh dn,đã uống
464,went,quynh dn,đã đi
465,cooked,quynh dn,đã nấu
466,spoke,quynh dn,đã nói
467,yesterday,quynh dn,ngày hôm qua
468,walked,quynh dn,đã đi bộ
469,liked,quynh dn,đã thích
470,wanted,quynh dn,đã muốn
471,loved,quynh dn,đã yêu
472,rained,quynh dn,đã mưa
473,touched,quynh dn,đã chạm vào
474,recently,quynh dn,vừa mới đây
475,played,quynh dn,đã chơi
476,heard,quynh dn,đã nghe thấy
477,listened,quynh dn,đã nghe
478,saw,quynh dn,"đã nhìn thấy
đã trông thấy"
479,had,quynh dn,đã có
480,said,quynh dn,đã nói
481,born,quynh dn,đã sinh ra
482,told,quynh dn,đã nói 
483,made,quynh dn,đã làm ra
484,used,quynh dn,đã sử dụng
485,left,quynh dn,đã rời đi
486,put,quynh dn,"đặt
đã đặt"
487,started,quynh dn,đã bắt đầu
488,thought,quynh dn,đã nghĩ
489,lost,quynh dn,đã mất
490,came,quynh dn,đã đến
491,took,quynh dn,"đã cầm
nắm
giữ"
492,wrote,quynh dn,đã viết
493,informed,quynh dn,"đã thông tin
đã báo tin"
494,gave,quynh dn,đã cho/biếu/tặng
495,turned,quynh dn,"đã quay
đã rẽ
đã đổi hướng"
496,tried,quynh dn,"đã cố gắng
đã thử"
497,supported,quynh dn,"đã ủng hộ
đã chịu đựng"
498,looked,quynh dn,đã nhìn
499,felt,quynh dn,đã cảm thấy
500,knew,quynh dn,"đã biết
đã hiểu"
501,performed,quynh dn,"đã thực hiện
đã hoàn thành
đã biểu diễn"
502,kept,quynh dn,đã giữ
503,introduced,quynh dn,đã giới thiệu
504,won,quynh dn,"đã chiến thắng
đã đoạt được"
505,happened,quynh dn,đã xảy ra
506,finished,quynh dn,đã kết thúc
507,reached,quynh dn,"đã đạt đến
đã với lấy"
508,showed,quynh dn,"đã cho xem
đã trưng bày
đã hiện ra"
509,entered,quynh dn,"đã đi vào
đã gia nhập"
510,opened,quynh dn,đã mở
511,seemed,quynh dn,"đã có vẻ như
dường như"
512,appeared,quynh dn,đã xuất hiện
513,explained,quynh dn,đã giải thích 
514,stopped,quynh dn,"đã dừng lại
đã ngừng lại"
515,fell,quynh dn,đã rơi xuống
516,answered,quynh dn,đã trả lời
517,stayed,quynh dn,"đã ở lại
đã lưu lại"
518,talked,quynh dn,đã nói
519,watched,quynh dn,"đã xem
đã trông nom"
520,student,quynh dn,sinh viên
521,doctor,quynh dn,bác sĩ
522,works,quynh dn,làm việc
523,author,quynh dn,tác giả
524,jobs,quynh dn,những công việc
525,models,quynh dn,"mô hình
mẫu mực
làm mẫu"
526,staff,quynh dn,"nhân viên
đội ngũ"
527,director,quynh dn,"giám đốc
hiệu trưởng
đạo diễn"
528,career,quynh dn,sự nghiệp
529,police,quynh dn,cảnh sát
530,artists,quynh dn,nhưững nghệ sĩ
531,secretaries,quynh dn,những thư ký
532,worker,quynh dn,công nhân
533,attorney,quynh dn,luật sư
534,professionals,quynh dn,"chuyên nghiệp
những người chuyên nghiệp"
535,judge,quynh dn,"quan tòa
thẩm phán
trọng tài"
536,writer,quynh dn,người viết
537,officers,quynh dn,"những viên chức
những sĩ quan"
538,guards,quynh dn,những người bảo vệ
539,actors,quynh dn,nhưững diễn viên
540,captain,quynh dn,"thuyền trưởng
cơ trưởng"
541,soldier,quynh dn,"quân nhân
lính"
542,bosses,quynh dn,những ông chủ
543,professions,quynh dn,những nghề nghiệp
544,farmer,quynh dn,nông dân
545,architect,quynh dn,kiến trúc sư
546,engineer,quynh dn,kĩ sư
547,waiter,quynh dn,nam phục vụ bàn
548,waitress,quynh dn,nữ phục vụ bàn
549,security,quynh dn,"sự an toàn
cơ quan bảo vệ
sự bảo đảm"
550,law,quynh dn,luật
551,governments,quynh dn,chính phủ
552,tax,quynh dn,thuế
553,court,quynh dn,tòa án
554,war,quynh dn,chiến tranh
555,president,quynh dn,"chủ tich
tổng thống
hiệu trưởng"
556,national,quynh dn,"thuộc dân tộc
thuộc quốc gia"
557,societies,quynh dn,"những xã hội
những đoàn thể"
558,safety,quynh dn,sự an toàn
559,advice,quynh dn,"lời khuyên
sự chỉ bảo"
560,investments,quynh dn,những sự đầu tư
561,vote,quynh dn,"bỏ phiếu
sự bỏ phiếu"
562,strategies,quynh dn,các chiến lược
563,opinions,quynh dn,các ý kiến
564,debt,quynh dn,nợ
565,progress,quynh dn,tiến bộ
566,peace,quynh dn,hòa bình
567,economies,quynh dn,những nền kinh tế
568,army,quynh dn,quân đội
569,demands,quynh dn,yêu cầu
570,crime,quynh dn,tội ác
571,leader,quynh dn,"người đứng đầu
người lãnh đạo"
572,freedom,quynh dn,sự tự do
573,arguments,quynh dn,"các lý lẽ
các luận chứng"
574,campaigns,quynh dn,"những chiến dịch
những cuộc vận động"
575,congress,quynh dn,"sự hội họp
đại hội, hội nghị"
576,election,quynh dn,"sự chọn
sự bầu cử"
577,queen,quynh dn,nữ hoàng
578,speech,quynh dn,bài diễn văn
579,violence,quynh dn,bạo lực
580,conflicts,quynh dn,những xung đột
581,navy,quynh dn,hải quân
582,candidate,quynh dn,ứng cử viên
583,threats,quynh dn,những mối đe dọa
584,governor,quynh dn,"thủ lĩnh
ủy viên hội đồng quản trị
kẻ thống trị"
585,senator,quynh dn,thượng nghị sĩ
586,crisis,quynh dn,coơn khủng hoảng
587,parliaments,quynh dn,nghị viện
588,strike,quynh dn,"đánh đập
đình công"
589,mayors,quynh dn,những thị trưởng
590,wealth,quynh dn,"sự giàu sang
sự phong phú"
591,blame,quynh dn,"sự khiển trách
lời trách mắng"
592,plan,quynh dn,"bản đồ
kế hoạch"
593,decision,quynh dn,quyết định
594,king,quynh dn,vua
595,cause,quynh dn,"nguyên nhân
lý do"
596,weapons,quynh dn,những vũ khí
597,arrest,quynh dn,"bắt giữ
sự bắt giữ"
598,princes,quynh dn,những hoàng tử
599,them,quynh dn,"họ
chúng"
600,us,quynh dn,"chúng tôi
chúng mình"
601,him,quynh dn,anh ấy
602,me,quynh dn,tôi
603,having,quynh dn, có
604,speaking,quynh dn,"lời nói
sự phát biểu
biểu thị"
605,touching,quynh dn,"sự sờ mó
cảm động"
606,making,quynh dn,"
sự làm 
đang làm"
607,following,quynh dn,"sự theo
số ngời theo
tiếp theo"
608,including,quynh dn, bao gồm
609,getting,quynh dn,"lấy được
nhận được
tìm ra"
610,taking,quynh dn,"sự cầm
nắm giữ"
611,trying,quynh dn,"gay go
làm thử
cố gắng"
612,giving,quynh dn,"cho tặng
việc tặng"
613,thinking,quynh dn,"sự suy nghĩ
ý nghĩ"
614,talking,quynh dn,"sự nói
cuộc chuyện trò"
615,saying,quynh dn,"lời nói
tiếng nói
tục ngữ"
616,waiting,quynh dn,"sự chào đời
chờ đợi
hầu bàn"
617,watching,quynh dn,"sự theo dõi
quan sát
nhìn xem"
618,wearing,quynh dn,"mặc
mang"
619,happening,quynh dn,"xảy ra
biến cố"
620,studying,quynh dn,"học tập
nghiên cứu"
621,coming,quynh dn,"sự đến
đi đến"
622,walking,quynh dn,"đi bộ
sự đi bộ"
623,eating,quynh dn,"ăn
sự ăn"
624,drinking,quynh dn,"uống
sự uống"
625,going,quynh dn,"đi
sự đi"
626,looking,quynh dn,"nhìn
chú ý"
627,doing,quynh dn,"làm
sự làm"
628,reading,quynh dn,"đọc
sự đọc"
629,writing,quynh dn,"viết
sự viết"
630,raining,quynh dn,"mưa
sự mưa"
631,sleeping,quynh dn,"ngủ
sự ngủ"
632,seeing,quynh dn,"nhìn thấy
sự nhìn thấy
sự trông thấy"
633,cooking,quynh dn,"nấu ăn
sự nấu ăn"
634,running,quynh dn,"chạy
sự chạy"
635,paying,quynh dn,trả tiền
636,playing,quynh dn,"chơi
chơi đùa"
637,working,quynh dn,"làm việc
sự làm việc"
638,starting,quynh dn,"bắt đầu
sự bắt đầu"
639,calling,quynh dn,"gọi
sự gọi"
640,leaving,quynh dn,"sự cáo từ
rời đi
sự cho phép"
641,sitting,quynh dn,"ngồi
sự ngồi"
642,money,quynh dn,tiền bạc
643,dollar,quynh dn,đồng đô la
644,businesses,quynh dn,"việc kinh doanh
công việc"
645,products,quynh dn,những sản phâm
646,board,quynh dn,"tấm ván
bảng
ban bộ"
647,insurances,quynh dn,sự bảo hiểm
648,sales,quynh dn,"sự bán
những hàng hoá bán"
649,card,quynh dn,"các, thiếp, thẻ
quân bài"
650,credit,quynh dn,"lòng tin
uy tín
tin"
651,industries,quynh dn,công nghiệp
652,offers,quynh dn,"những sự cho
đề nghị"
653,gold,quynh dn,vàng
654,trade,quynh dn,"thương nghiệp
mậu dịch"
655,risk,quynh dn,nguy cơ
656,brands,quynh dn,"những nhãn hiệu
những nhãn hàng"
657,contracts,quynh dn,những hợp đồng
658,deal,quynh dn,"giao dịch
giải quyết"
659,budgets,quynh dn,những ngân quỹ
660,agent,quynh dn,đại lý
661,worth,quynh dn,"đáng giá
giá trị"
662,currency,quynh dn,tiền tệ
663,advertisements,quynh dn,các quảng cáo
664,promotions,quynh dn,"sự xúc tiến
sự khuyến mại"
665,prizes,quynh dn,giải thưởng
666,firm,quynh dn,"hãng 
công ty
vững chắc"
667,advertising,quynh dn,"quảng cáo
báo cho biết"
668,cost,quynh dn,"giá
chi phí
trị giá"
669,organization,quynh dn,tổ chức
670,lots,quynh dn,"việc rút thăm
số phận"
671,costs,quynh dn,"giá
chi phí
trị giá"
672,interviews,quynh dn,"những cuộc nói chuyện riêng
bài phỏng vấn"
673,meeting,quynh dn,"cuộc biểu tình
cuộc hội họp"
674,company,quynh dn,công ty
675,price,quynh dn,giá cả
676,checks,quynh dn,"séc
sự kiểm tra"
677,global,quynh dn,"toàn cầu
toàn thể"
678,from,quynh dn,từ
679,in,quynh dn,trong 
680,on,quynh dn,"trên
vào"
681,at,quynh dn,"ở tại
đang lúc"
682,of,quynh dn,"của
thuộc"
683,between,quynh dn,"ở giữa
trong khoảng"
684,by,quynh dn,"cạnh, gần bên
bởi, bằng"
685,for,quynh dn,"thay cho
cho
bởi vì"
686,about,quynh dn,"nói về
xung quanh"
687,without,quynh dn,"không có
bên ngoài
trừ phi"
688,with,quynh dn,"với
cùng
có"
689,to,quynh dn,"đến
cho đến"
690,as,quynh dn,"như
cũng, bằng"
691,after,quynh dn,"sau
sau khi
ở đằng sau"
692,out,quynh dn,"ngoài
ở ngoài
ra"
693,under,quynh dn,"dưới
ở dưới"
694,off,quynh dn,"tắt
ra khỏi"
695,during,quynh dn,"trong lúc
trải qua"
696,among,quynh dn,"giữa
trong số"
697,behind,quynh dn,"sau
ở đằng sau"
698,towards,quynh dn,"về phía
hướng về"
699,near,quynh dn,"gần
cận"
700,over,quynh dn,"trên
ở trên
trên khắp"
701,except,quynh dn,"trừ ra
loại ra"
702,against,quynh dn,"chống lại
đề phòng"
703,if,quynh dn,"nếu
nếu như"
704,because,quynh dn,"vì
bởi vì"
705,or,quynh dn,"hoặc
hay là"
706,but,quynh dn,"nhưng
nhưng mà"
707,while,quynh dn,"trong lúc
trong khi"
708,whenever,quynh dn,"lúc nào
bất cứ lúc nào"
709,parts,quynh dn,"một phần
bộ phận"
710,views,quynh dn,"nhìn thấy
tầm nhìn"
711,service,quynh dn,"sự phục vụ
sự giúp đỡ"
712,list,quynh dn,"danh sách
bản kê khai"
713,systems,quynh dn,"hệ thống
chế độ"
714,review,quynh dn,"sự xem lại
xem lại"
715,order,quynh dn,"thứ tự
mệnh lệnh
ra lệnh"
716,groups,quynh dn,các nhóm
717,ways,quynh dn,"những đường đi
những biện pháp"
718,types,quynh dn,"những kiểu
những loại"
719,case,quynh dn,"trường hợp
hòm"
720,versions,quynh dn,"bản
bản dịch"
721,members,quynh dn,những thành viên
722,controls,quynh dn,"sự điều khiển
sự kiềm chế"
723,changes,quynh dn,những sự thay đổi
724,calls,quynh dn,"gọi, triệu tập
sự kêu gọi"
725,accounts,quynh dn,"những tài khoản
những sự kế toán"
726,profile,quynh dn,tiểu sử
727,level,quynh dn,"mức
trình độ"
728,description,quynh dn,sự miêu tả
729,images,quynh dn,những hình ảnh
730,content,quynh dn,"nội dung
sự bằng lòng"
731,value,quynh dn,"giá trị
đánh giá
giá cả"
732,categories,quynh dn,"hoạng
loại
phạm trù"
733,acts,quynh dn,"hành động
đạo luật
tiết mục"
734,equipment,quynh dn,"sự trang bị
dụng cụ"
735,problem,quynh dn,vấn đề
736,sides,quynh dn,"mặt, bên
phần bên cạnh
khía cạnh"
737,performance,quynh dn,"thành quả
sự thực hiện"
738,options,quynh dn,"sự lựa chọn
quyền chọn"
739,activities,quynh dn,"sự hoạt động
sự tích cực
sự nhanh nhẹn"
740,results,quynh dn,"kết quả
do bởi
dẫn đến"
741,issue,quynh dn,"sự phát hành
sản phẩm"
742,agreements,quynh dn,"hiệp định
hợp đồng
sự bằng lòng"
743,solutions,quynh dn,"giải pháp
cách giải quyết"
744,production,quynh dn,"sự đưa ra
sự trình bày
sự sản xuất"
745,protection,quynh dn,"sự bảo hộ
sự bảo trợ
người bảo vệ"
746,construction,quynh dn,"sự xây dựng
xây dựng"
747,responses,quynh dn,"sự trả lời
dự đáp lại
sự hưởng ứng"
748,entry,quynh dn,"nhập
sự ghi vào
lối đi vào"
749,effect,quynh dn,"kết quả
hiệu quả
tác động"
750,minds,quynh dn,"tâm trí
sự chủ tâm
tinh thần"
751,wishes,quynh dn,"điều mong muốn
ý muốn
lời chúc"
752,hope,quynh dn,huy vọng
753,union,quynh dn,"hợp nhất
liên hiệp
công đoàn"
754,opportunities,quynh dn,"cơ hội
thời cơ"
755,choice,quynh dn,"sự lựa chọn
quyền chọn"
756,degrees,quynh dn,"mức độ
trình độ"
757,matters,quynh dn,"chủ đề
sự kiện
việc quan trọng"
758,voices,quynh dn,"tiếng
tiếng nói"
759,evidence,quynh dn,"sự hiển nhiên
rõ ràng
bằng chứng"
760,roles,quynh dn,vai trò
761,purpose,quynh dn,"mục đích
ý định"
762,successes,quynh dn,"sự thành công
sự thắng lợi
kết quả"
763,award,quynh dn,"tặng thưởng
trao tặng"
764,introduction,quynh dn,"sự giới thiệu
lời mở đầu"
765,charge,quynh dn,"vật mang
gánh vác
nhiệm vụ"
766,grade,quynh dn,"cấp bậc
phân loại"
767,rest,quynh dn,"sự nghỉ ngơi
sự yê ntâm
sự yên nghỉ"
768,subject,quynh dn,"chủ đề
vấn đề
môn học"
769,dark,quynh dn,"tối tăm
mù mịt"
770,alternatives,quynh dn,"xen nhau
thay phiên nhau
sự lựa chọn thay thế"
771,kinds,quynh dn,"loài giống
bản tính"
772,record,quynh dn,"hồ sơ
biên bản"
773,edge,quynh dn,"lưỡi
cạnh sắc"
774,flower,quynh dn,"hoa
bông hoa"
775,tree,quynh dn,cây
776,grass,quynh dn,"cỏ
bãi cỏ"
777,sky,quynh dn,"trời
bầu trời"
778,seas,quynh dn,"biển
sóng biển"
779,moon,quynh dn,"mặt trăng
ánh trăng"
780,suns,quynh dn,"mặt trời
ánh nắng"
781,world,quynh dn,"thế giới
địa cầu"
782,volcano,quynh dn,núi lửa
783,fire,quynh dn,"lửa
sự cháy"
784,air,quynh dn,"không khí
bầu không khí
máy bay"
785,field,quynh dn,"đồng ruộng
cánh đồng"
786,stars,quynh dn,"sao
ngôi sao"
787,land,quynh dn,"đất
đất liền"
788,weather,quynh dn,"thời tiết
tiết trời"
789,nature,quynh dn,"thiên nhiên
tạo hóa
bản chất"
790,river,quynh dn,"dòng sông
sông"
791,earth,quynh dn,"quả đất
mặt đất"
792,mountain,quynh dn,núi
793,woods,quynh dn,gỗ
794,up,quynh dn,"lên trên
đứng lên"
795,forest,quynh dn,rừng
796,stone,quynh dn,đá
797,wind,quynh dn,gió
798,heat,quynh dn,"sức nóng
sự nóng
nung nóng"
799,roses,quynh nn,"màu hồng
những bông hồng"
800,planet,quynh nn,hành tinh
801,down,quynh nn,"xuống
giảm bớt"
802,climate,quynh nn,"khí hậu
thời tiết"
803,universe,quynh nn,"vũ trụ
thế giới"
804,leaves,quynh nn,"những sự cáo từ
rời đi"
805,landscapes,quynh nn,phong cảnh
806,soil,quynh nn,"đất
dơ bẩn"
807,smoke,quynh nn,"khói
hút thuốc"
808,crop,quynh nn,"vụ mùa
thu hoạch"
809,gases,quynh nn,"xăng
khí ga"
810,material,quynh nn,"chất liệu
vật chất"
811,plants,quynh nn,những hành tinh
812,light,quynh nn,"ánh sáng
đốt lên
nhẹ nhàng"
813,dust,quynh nn,"bụi
quét bụi"
814,sand,quynh nn,"cát
bãi cát
đổ cát"
815,red,quynh nn,"màu đỏ
đỏ"
816,white,quynh nn,"màu trắng
trắng"
817,black,quynh nn,"màu đen
đen"
818,blue,quynh nn,"màu xanh
xanh"
819,yellow,quynh nn,"màu vàng
vàng"
820,green,quynh nn,"màu xanh lá
xanh lá"
821,gray,quynh nn,"màu xám
xám"
822,colors,quynh nn,"những màu sắc
thuốc vẽ"
823,brown,quynh nn,"màu nâu
nâu"
824,colorful,quynh nn,"nhiều màu sắc
hoa mỹ"
825,pink,quynh nn,"màu hồng
hồng"
826,purple,quynh nn,"màu tím
tím"
827,hello,quynh nn,"xin chào
chào"
828,bye,quynh nn,"tạm biệt
chào tạm biệt"
829,thanks,quynh nn,"cảm ơn
sự cảm ơn"
830,yes,quynh nn,"có
vâng
được"
831,please,quynh nn,"làm ơn
làm hài lòng"
832,fine,quynh nn,"tốt
khỏe"
833,morning,quynh nn,buổi sáng
834,night,quynh nn,"buổi tối
ban đêm"
835,sorry,quynh nn,"xin lỗi
lấy làm tiếc"
836,welcome,quynh nn,"chào mừng
có gì đâu"
837,not,quynh nn,không
838,speak,quynh nn,"nói
phát biểu"
839,speaks,quynh nn,"nói
phát biểu"
840,english,quynh nn,"tiếng anh
người Anh
thuộc Anh"
841,goodbye,quynh nn,"tạm biệt
lời chào tạm biệt"
842,been,quynh nn,"ở
là
trở thành "
843,previously,quynh nn,"trước đây
gấp gáp"
844,eaten,quynh nn,"ăn
ăn mòn"
845,spoken,quynh nn,"nói
phát biểu"
846,previous,quynh nn,"trước
vội vàng"
847,seen,quynh nn,"nhìn thấy
nhận ra
tưởng tượng"
848,since,quynh nn,"từ khi
từ lâu
trước đây"
849,paid,quynh nn,"thanh toán
trả tiền"
850,before,quynh nn,"trước đây
đằng trước
trước khi"
851,given,quynh nn,"cho, tặng
đưa cho
trao cho"
852,become,quynh nn,"trở nên
trở thành
vừa vặn"
853,written,quynh nn,"viết
soạn"
854,done,quynh nn,"làm
hoàn thành
đã qua đi"
855,ago,quynh nn,"trước đây
về trước"
856,asked,quynh nn,"hỏi
thỉnh cầu
yêu cầu"
857,developed,quynh nn,"phát triển
tiến triển
khai thác"
858,presented,quynh nn,"có mặt
trình bày
giới thiệu"
859,closed,quynh nn,"đóng
kín, không công khai"
860,changed,quynh nn,"thay đổi
biến đổi"
861,produced,quynh nn,"sản xuất
chế tạo"
862,met,quynh nn,"gặp gỡ
cuộc gặp gỡ"
863,followed,quynh nn,"theo dõi
đi theo sau
kế tiếp"
864,gone,quynh nn,"đi
đã trôi qua
ra đi"
865,prepared,quynh nn,"chuẩn bị
sửa soạn"
866,forced,quynh nn,"thúc đẩy
đẩy tới
ép, gượng"
867,reduced,quynh nn,"giảm bớt
hạ"
868,ordered,quynh nn,"ra lệnh
chỉ dẫn
đặt hàng"
869,lived,quynh nn,"sống
trú tại"
870,arrived,quynh nn,"đi đến
đạt tới"
871,missed,quynh nn,"bỏ lỡ
bỏ quên"
872,assumed,quynh nn,"giả định
làm ra vẻ
gánh vác"
873,allowed,quynh nn,"cho phép
công nhận"
874,known,quynh nn,"biết
hiểu"
875,drunk,quynh nn,"uống
say"
876,passed,quynh nn,"trải qua
đi qua"
877,two,quynh nn,"hai
số hai"
878,three,quynh nn,"ba
số ba"
879,four,quynh nn,"bốn
số bốn"
880,five,quynh nn,"năm
số năm"
881,some,quynh nn,"một vài
một số"
882,more,quynh nn,"hơn nữa
nhiều hơn
hơn"
883,six,quynh nn,"sáu
số sáu"
884,seven,quynh nn,"bảy
số bảy"
885,eight,quynh nn,"tám
số tám"
886,nine,quynh nn,"chín
số chín"
887,ten,quynh nn,"mười
số mười"
888,many,quynh nn,"nhiều
số nhiều"
889,last,quynh nn,"cuối cùng
vừa qua
gần đây nhất"
890,first,quynh nn,"đầu tiên
cơ bản
trước hết"
891,numbers,quynh nn,"những con số
đếm"
892,much,quynh nn,"nhiều
lắm"
893,million,quynh nn,"triệu
phần triệu"
894,third,quynh nn,"thứ ba
một phần ba"
895,amount,quynh nn,"tổng số
số lượng"
896,eleven,quynh nn,"mười một
số mười một"
897,twelve,quynh nn,"mười hai
số mười hai"
898,thirteen,quynh nn,"mười ba
số mười ba"
899,fourteen,quynh nn,"mười bốn
số mười bốn"
900,fifteen,quynh nn,"mười lăm
số mười lăm"
901,sixteen,quynh nn,"mười sáu
số mười sáu"
902,seventeen,quynh nn,"mười bảy
số mười bảy"
903,eighteen,quynh nn,"mười tám
số mười tám"
904,nineteen,quynh nn,"mười chín
số mười chín"
905,twenty,quynh nn,"hai mươi
số hai mươi"
906,thirty,quynh nn,"ba mươi
số ba mươi"
907,forty,quynh nn,"bốn mươi
số bốn mươi"
908,fifty,quynh nn,"năm mươi
số năm mươi"
909,sixty,quynh nn,"sáu mươi
số sáu mươi"
910,seventy,quynh nn,"bảy mươi
số bảy mươi"
911,eighty,quynh nn,"tám mươi
số tám mươi"
912,ninety,quynh nn,"chín mươi
số chín mươi"
913,hundred,quynh nn,"một trăm
số một trăm
hàng trăm"
914,enough,quynh nn,"đủ
sự đủ
khá"
915,thousands,quynh nn,"hàng nghìn
rất nhiều"
916,sum,quynh nn,"tổng số
cộng"
917,majority,quynh nn,"phần lớn
đa số
phần đông"
918,fourth,quynh nn,"thứ tư
một phần tư"
919,meter,quynh nn,mét
920,pair,quynh nn,"cặp
một đôi
ghép đôi"
921,average,quynh nn,"mức trung bình
số trung bình
trung bình"
922,half,quynh nn,"nửa
gần như"
923,per,quynh nn,"mỗi
theo"
924,total,quynh nn,"tổng số
toàn bộ
hoàn toàn"
925,there,quynh nn,"chỗ đấy
ở đó"
926,very,quynh nn,"rất
thực sự"
927,too,quynh nn,"cũng
quá
hơn thế"
928,now,quynh nn,"bây giờ
hiện nay
ngay lập tức"
929,so,quynh nn,"vì vậy
như vậy
cũng thế"
930,never,quynh nn,"không bao giờ
đừng"
931,then,quynh nn,"lúc đó
sau đó
vậy thì"
932,here,quynh nn,"ở đây
nơi đây"
933,always,quynh nn,"luôn luôn
mãi mãi"
934,also,quynh nn,"cũng vậy
hơn nữa"
935,once,quynh nn,"một lần
một khi"
936,only,quynh nn,"chỉ
duy nhất
nhưng"
937,just,quynh nn,"vừa mới
công bằng
chỉ"
938,well,quynh nn,"tốt
hợp lý"
939,even,quynh nn,"ngay cả
lại còn
bằng phẳng"
940,still,quynh nn,"vẫn còn
ấy thế mà
im lặng"
941,however,quynh nn,"tuy nhiên
dù như thế nào"
942,really,quynh nn,"thật sự
thật ra"
943,again,quynh nn,"lại
lần nữa
hơn nữa"
944,yet,quynh nn,"còn nữa
còn
lúc này"
945,away,quynh nn,"xa cách
rời đi"
946,already,quynh nn,"đã
đã rồi"
947,least,quynh nn,"ít nhất
tối thiểu"
948,ever,quynh nn,"mãi mãi
đã từng"
949,else,quynh nn,"khác
nếu không"
950,usually,quynh nn,"thường thường
thường lệ"
951,far,quynh nn,"xa
nơi xa"
952,currently,quynh nn,"mới đây
đương đại
hiện tại"
953,later,quynh nn,"sau đó
sau khi"
954,soon,quynh nn,"sớm
ngay"
955,almost,quynh nn,"gần như
suýt"
956,late,quynh nn,"muộn
trễ"
957,especially,quynh nn,"đặc biệt là
nhất là"
958,finally,quynh nn,"cuối cùng
sau cùng"
959,sometimes,quynh nn,"thỉnh thoảng
đôi khi"
960,easily,quynh nn,"dễ dàng
thoải mái"
961,generally,quynh nn,"tổng quát
nói chung"
962,completely,quynh nn,"hoàn toàn
trọn vẹn"
963,approximately,quynh nn,"gần đúng
khoảng"
964,exactly,quynh nn,"chính xác
chuẩn"
965,clearly,quynh nn,"rõ ràng
hẳn nhiên"
966,anywhere,quynh nn,bất kỳ đâu
967,twice,quynh nn,"hai lần
gấp hai"
968,possibly,quynh nn,"có thể
có khả năng"
969,normally,quynh nn,"thông thường
bình thường"
970,neither,quynh nn,"cũng không
không nữa"
971,nor,quynh nn,"cũng không
không nữa"
972,necessarily,quynh nn,"cần thiết
tất yếu"
973,definitely,quynh nn,"chắc chắn
xác định"
974,slowly,quynh nn,chậm chạp
975,perfectly,quynh nn,"hoàn hảo
hoàn toàn"
976,together,quynh nn,"cùng nhau
đồng thời"
977,mother,quynh nn,mẹ
978,fathers,quynh nn,những người bố
979,parent,quynh nn,"bố mẹ
phụ huynh"
980,sons,quynh nn,những con trai
981,daughter,quynh nn,con gái
982,brother,quynh nn,"anh trai
em trai"
983,sister,quynh nn,"chị gái
em gái"
984,sibling,quynh nn,"anh em ruột
chị em ruột"
985,husband,quynh nn,người chồng
986,wives,quynh nn,những người vợ
987,uncle,quynh nn,"chú
cậu
bác trai"
988,aunt,quynh nn,"cô
dì
bác gái"
989,family,quynh nn,gia đình
990,marriage,quynh nn,"hôn nhân
sự kết hôn"
991,dads,quynh nn,bố (thân mật)
992,grandmothers,quynh nn,những người bà
993,grandfather,quynh nn,ông
994,name,quynh nn,"tên
đặt tên"
995,sign,quynh nn,"dấu hiệu
ký tên"
996,open,quynh nn,"mở
công khai"
997,save,quynh nn,"lưu trữ
tiết kiệm"
998,live,quynh nn,"sống
trú tại"
999,study,quynh nn,"học
sự học
nghiên cứu"
1000,needs,quynh nn,"cần
nhu cầu"
1001,includes,quynh nn,"bao gồm
kể cả"
1002,ask,quynh nn,"hỏi
thỉnh cầu
yêu cầu"
1003,mark,quynh nn,"đánh dấu
chấm điểm"
1004,makes,quynh nn,"làm
sản xuất"
1005,shows,quynh nn,"trình diễn
chương trình
lộ ra"
1006,wish,quynh nn,"ước
muốn
điều ước"
1007,fail,quynh nn,"thất bại
hỏng
thiếu sót"
1008,include,quynh nn,"bao hàm
gồm có"
1009,pass,quynh nn,"vượt qua
trải qua"
1010,raise,quynh nn,"nâng lên
nêu ra
dưng nên"
1011,returns,quynh nn,"quay lại
lợi nhuận
trở về"
1012,thank,quynh nn,"cảm ơn
sự cảm ơn"
1013,comes,quynh nn,"đến
đi tới"
1014,takes,quynh nn,"cầm
năm giữ"
1015,seems,quynh nn,"nhìn thấy
nhận ra
tưởng tượng"
1016,answers,quynh nn,"trả lời
câu trả lời"
1017,starts,quynh nn,"bắt đầu
xuất phát"
1018,ends,quynh nn,"kết thúc
chấm dứt"
1019,trust,quynh nn,"tin tưởng
tín nhiệm
lòng tin"
1020,cat,quynh nn,con mèo
1021,dog,quynh nn,con chó
1022,horse,quynh nn,con ngựa
1023,bird,quynh nn,con chim
1024,elephant,quynh nn,con voi
1025,duck,quynh nn,con vịt
1026,turtle,quynh nn,con rùa
1027,crab,quynh nn,con cua
1028,spider,quynh nn,con nhện
1029,animal,quynh nn,"động vật
loài vật"
1030,bear,quynh nn,con gấu
1031,mouse,quynh nn,con chuột
1032,tables,quynh nn,"những cái bàn
những cái bảng"
1033,beds,quynh nn,những cái giường
1034,chair,quynh nn,cái ghế
1035,bowls,quynh nn,"những cái bát
lăn"
1036,spoons,quynh nn,những cái thìa
1037,bottle,quynh nn,những cái chai
1038,magazines,quynh nn,những tạp chí
1039,window,quynh nn,cửa sổ
1040,televisions,quynh nn,những cái ti vi
1041,computers,quynh nn,những cái máy tính
1042,radio,quynh nn,đài
1043,mirrors,quynh nn,những cái gương
1044,clocks,quynh nn,những đồng hồ
1045,cellphone,quynh nn,điện thoại di động
1046,sofas,quynh nn,ghế sô pha
1047,lamp,quynh nn,đèn
1048,desks,quynh nn,"những cái bàn
những cái bảng"
1049,basket,quynh nn,"cái giỏ
cái rổ"
1050,battery,quynh nn,"pin
ắc quy"
1051,soap,quynh nn,"xà phòng
xà bông"
1052,bedsheet,quynh nn,ga trải giường
1053,wallets,quynh nn,"cái ví
cái bóp"
1054,doors,quynh nn,những cái cửa
1055,box,quynh nn,cái hộp
1056,tv,quynh nn,tivi
1057,screen,quynh nn,màn hình
1058,razors,quynh nn,dao cạo
1059,toothpaste,quynh nn,kem đánh răng
1060,telephone,quynh nn,điện thoại
1061,walls,quynh nn,những bức tường
1062,floors,quynh nn,"những sàn nhà
những tầng nhà"
1063,bag,quynh nn,cái túi
1064,wheels,quynh nn,những chiếc bánh xe
1065,umbrella,quynh nn,cái ô
1066,roof,quynh nn,"mái nhà
nóc"
1067,cabinet,quynh nn,"buồng
tủ"
1068,letter,quynh nn,"bức thư
chữ cái"
1069,keys,quynh nn,những cái chìa khóa
1070,pool,quynh nn,hồ bơi
1071,sponges,quynh nn,bọt biển
1072,things,quynh nn,"vật
đồ vật"
1073,bell,quynh nn,chuông
1074,scissors,quynh nn,"cái kéo
những cái kéo"
1075,glasses,quynh nn,"mắt kính
kính"
1076,cup,quynh nn,"cái cốc
cái cúp"
1077,phones,quynh nn,những cái điện thoại
1078,pans,quynh nn,những cái chảo
1079,papers,quynh nn,"giấy
giấy tờ"
1080,engine,quynh nn,"động cơ
máy móc"
1081,objects,quynh nn,"những đối tượng
những vật thể"
1082,machines,quynh nn,những máy móc
1083,string,quynh nn,"chuỗi
dây"
1084,piece,quynh nn,"mảnh
miếng"
1085,sheets,quynh nn,"tờ
tấm"
1086,motors,quynh nn,"động cơ
máy"
1087,roots,quynh nn,"rễ
gốc"
1088,chains,quynh nn,"dây chuyền
dây xích"
1089,flags,quynh nn,"cờ
lá cờ
những lá cờ"
1090,novel,quynh nn,"tiểu thuyết
truyện"
1091,powder,quynh nn,"bột
bụi
phấn"
1092,comb,quynh nn,"cái lược
chải"
1093,through,quynh nn,"thông qua
xuyên qua"
1094,fork,quynh nn,cái nĩa
1095,knives,quynh nn,"con dao
những con dao"
1096,toothbrushes,quynh nn,bàn chải đánh răng
1097,today,quynh nn,"hôm nay
ngày nay"
1098,tomorrow,quynh nn,"ngày mai
mai"
1099,tonight,quynh nn,"tối nay
đêm nay"
1100,afternoons,quynh nn,những buổi chiều
1101,time,quynh nn,"thời gian
lần
dịp"
1102,calendars,quynh nn,những quyển lịch
1103,monday,quynh nn,thứ hai
1104,tuesdays,quynh nn,thứ ba
1105,wednesdays,quynh nn,thứ tư
1106,thursday,quynh nn,thứ năm
1107,friday,quynh nn,thứ sáu
1108,days,quynh nn,"những ngày
ban ngày"
1109,saturday,quynh nn,thứ bảy
1110,sunday,quynh nn,chủ nhật
1111,years,quynh nn,những năm
1112,age,quynh nn,"tuổi
tuổi tác"
1113,week,quynh nn,"tuần
tuần lễ"
1114,month,quynh nn,tháng
1115,hour,quynh nn,"giờ
tiếng"
1116,january,quynh nn,tháng một
1117,february,quynh nn,tháng hai
1118,march,quynh nn,tháng ba
1119,april,quynh nn,tháng tư
1120,date,quynh nn,"ngày tháng
buổi hẹn"
1121,june,quynh nn,tháng sáu
1122,july,quynh nn,tháng bảy
1123,august,quynh nn,tháng tám
1124,september,quynh nn,tháng chín
1125,october,quynh nn,tháng mười
1126,november,quynh nn,tháng mười một
1127,december,quynh nn,tháng mười hai
1128,seasons,quynh nn,những mùa (trong năm)
1129,winters,quynh nn,những mùa đông
1130,spring,quynh nn,mùa xuân
1131,summer,quynh nn,mùa hè
1132,period,quynh nn,"thời kỳ
chu kỳ
thời hạn"
1133,minutes,quynh nn,những phút
1134,centuries,quynh nn,"thế kỷ
trăm năm"
1135,parties,quynh nn,những buổi tiệc
1136,stages,quynh nn,những giai đoạn
1137,generations,quynh nn,"những thế hệ
những đời"
1138,births,quynh nn,"những sự ra đời
những sự sinh đẻ"
1139,moment,quynh nn,"chốc
lát
thời điểm"
1140,evening,quynh nn,"buổi chiều
buổi tối"
1141,fairs,quynh nn,"hội chợ
chợ phiên
công bằng"
1142,decade,quynh nn,"thập kỷ
bộ mười"
1143,second,quynh nn,"giây
thứ nhì"
1144,bit,quynh nn,"miếng
một chút"
1145,until,quynh nn,"cho đến khi
đến lúc"
1146,himself,quynh nn,"chính anh ta
tự anh ta"
1147,herself,quynh nn,"chính cô ta
tự cô ta"
1148,itself,quynh nn,"chính nó
tự nó"
1149,myself,quynh nn,"chính tôi
tự tôi"
1150,yourself,quynh nn,"chính bạn
tự bạn"
1151,ourselves,quynh nn,"bản thân chúng ta
tự chúng ta"
1152,yourselves,quynh nn,"chính các bạn
tự các bạn"
1153,themselves,quynh nn,"chính họ
tự họ"
1154,close,quynh nn,"gần
đóng"
1155,control,quynh nn,"điều khiển
kiểm soát"
1156,discover,quynh nn,"khám phá
tìm thấy"
1157,establish,quynh nn,"xây dựng
thành lập"
1158,place,quynh nn,"địa điểm
nơi chốn"
1159,resolve,quynh nn,"giải quyết
quyết định"
1160,transport,quynh nn,"sự vận tải
chuyên chở"
1161,considered,quynh nn,"cân nhắc
xem xét"
1162,managed,quynh nn,"quản lý
điều khiển"
1163,discovered,quynh nn,đã được khám phá
1164,house,quynh nn,"ngôi nhà
nhà"
1165,restaurants,quynh nn,"những nhà hàng
những quán ăn"
1166,beaches,quynh nn,những bãi biển
1167,hotel,quynh nn,khách sạn
1168,yard,quynh nn,sân
1169,bathrooms,quynh nn,phòng tắm
1170,kitchen,quynh nn,"phòng bếp
nhà bếp"
1171,airport,quynh nn,"sân bay
phi trường"
1172,street,quynh nn,"đường
phố"
1173,city,quynh nn,thành phố
1174,church,quynh nn,"nhà thờ
thánh đường"
1175,castles,quynh nn,"lâu đài
những lâu đài"
1176,countries,quynh nn,"những nước
những quốc gia"
1177,along,quynh nn,"theo chiều dài
dọc theo"
1178,into,quynh nn,"vào
vào trong"
1179,homes,quynh nn,"những nhà
những gia đình"
1180,site,quynh nn,"nơi
vị trí"
1181,centers,quynh nn,"những khu trung tâm
những chỗ chính giữa"
1182,office,quynh nn,"văn phòng
chỗ làm"
1183,area,quynh nn,"vùng
khu vực"
1184,addresses,quynh nn,địa chỉ
1185,department,quynh nn,"bộ phận
chi nhánh"
1186,properties,quynh nn,"chủ sở hữu
quyền sở hữu
đặc tính"
1187,rooms,quynh nn,"những căn phòng
những buồng"
1188,market,quynh nn,"chợ
thị trường"
1189,park,quynh nn,"công viên
vườn hoa"
1190,building,quynh nn,"tòa nhà
công trình xây dựng"
1191,garden,quynh nn,"vườn
công viên"
1192,region,quynh nn,"vùng
miền
khu vực"
1193,islands,quynh nn,những hòn đảo
1194,front,quynh nn,"trước
đằng trước"
1195,district,quynh nn,"quận
huyện"
1196,banks,quynh nn,những ngân hàng
1197,bar,quynh nn,quán bar
1198,inside,quynh nn,"trong
ở trong"
1199,station,quynh nn,"trạm
nhà ga"
1200,ground,quynh nn,"bãi đất
mặt đất"
1201,valleys,quynh nn,những thung lũng
1202,museums,quynh nn,những bảo tàng
1203,coasts,quynh nn,những bờ biển
1204,zone,quynh nn,khu vực
1205,corners,quynh nn,những góc
1206,avenue,quynh nn,đại lộ
1207,routes,quynh nn,"con đường
tuyến đường"
1208,neighborhoods,quynh nn,hàng xóm
1209,borders,quynh nn,"những biên giới
những đường viền"
1210,towers,quynh nn,những tòa tháp
1211,cinema,quynh nn,rạp chiếu phim
1212,prison,quynh nn,"nhà tù
nhà giam"
1213,palaces,quynh nn,"cung điện
dinh thự
những cung điện"
1214,town,quynh nn,thị trấn
1215,capital,quynh nn,thủ đô
1216,communities,quynh nn,"cộng đồng
nhóm người"
1217,port,quynh nn,"cổng
cảng"
1218,rights,quynh nn,"những điều tốt
những điều đúng đắn"
1219,square,quynh nn,"ô vuông
quảng trường"
1220,top,quynh nn,đỉnh
1221,west,quynh nn,phía tây
1222,north,quynh nn,phía đông
1223,farms,quynh nn,những nông trại
1224,zoos,quynh nn,"những vườn thú
những vườn bách thú"
1225,wear,quynh nn,"mặc
mang"
1226,wears,quynh nn,"mặc
mang"
1227,shirts,quynh nn,những cái áo sơ mi
1228,shoes,quynh nn,những chiếc giày
1229,skirt,quynh nn,cái váy
1230,coats,quynh nn,những cái áo khoác
1231,dresses,quynh nn,những cái đầm
1232,pants,quynh nn,quần dài
1233,clothes,quynh nn,"áo quần
trang phục"
1234,suits,quynh nn,những bộ com lê
1235,hats,quynh nn,những cái mũ
1236,whom,quynh nn,"ai
người nào"
1237,uses,quynh nn,"sự dùng
sử dụng"
1238,contains,quynh nn,"chứa
bao hàm"
1239,gets,quynh nn,"nhận được
được"
1240,respect,quynh nn,"tôn trọng
sự tôn trọng"
1241,gives,quynh nn,"cho
đưa cho
trao cho"
1242,watches,quynh nn,"xem
đồng hồ"
1243,lives,quynh nn,"sống
cư trú
ở"
1244,follows,quynh nn,"theo dõi
đi theo sau
kế tiếp"
1245,fill,quynh nn,"điền
làm đầy"
1246,reserve,quynh nn,"dự trữ
sự dự trữ"
1247,appears,quynh nn,"xuất hiện
hiện ra"
1248,signs,quynh nn,"những dấu hiệu
những chữ ký"
1249,mix,quynh nn,"trộn
hòa lẫn"
1250,dry,quynh nn,"khô
cạn
phơi khô"
1251,fly,quynh nn,"bay
con ruồi"
1252,import,quynh nn,"xuất ra
nhập khẩu"
1253,helps,quynh nn,"những sự giúp đỡ
giúp đỡ"
1254,spend,quynh nn,"chi tiêu
tiêu"
1255,supports,quynh nn,"những sự hỗ trợ
những sự giúp đỡ"
1256,knows,quynh nn,"biết
hiểu biết"
1257,continues,quynh nn,"tiếp tục
tiếp diễn"
1258,deliver,quynh nn,"giải phóng
bày tỏ"
1259,begins,quynh nn,"bắt đầu
khởi đầu"
1260,presents,quynh nn,"giới thiệu
hiện tại
có mặt"
1261,assumes,quynh nn,"giả định
làm ra vẻ
gánh vác"
1262,tells,quynh nn,"nói ra
kể"
1263,finds,quynh nn,tìm 
1264,counts,quynh nn,"đếm
tính"
1265,serves,quynh nn,phục vụ
1266,creates,quynh nn,"tạo ra
sáng tạo"
1267,believes,quynh nn,"tin
tin tưởng"
1268,adds,quynh nn,"cộng
thêm vào"
1269,talks,quynh nn,"nói
lời nói"
1270,visits,quynh nn,"thăm
tham quan"
1271,feels,quynh nn,"cảm thấy
sự sờ mó"
1272,opens,quynh nn,"mở
công khai"
1273,explains,quynh nn,"giải thích
thanh minh"
1274,reserves,quynh nn,"dự trữ
những sự dự trữ"
1275,receives,quynh nn,"nhận
thu vào"
1276,wins,quynh nn,"thắng
những chiến thắng"
1277,cuts,quynh nn,"cắt
thái
những sự cắt"
1278,puts,quynh nn,"đặt
để"
1279,thinks,quynh nn,"nghĩ
nghĩ ngợi"
1280,produces,quynh nn,"những sản phẩm
sản xuất
chế tạo"
1281,announce,quynh nn,"báo
công bố"
1282,fits,quynh nn,"cái vừa vặn
vừa hợp"
1283,delivers,quynh nn,"giải phóng
bày tỏ"
1284,asks,quynh nn,"hỏi
thỉnh cầu
yêu cầu"
1285,tries,quynh nn,"cố gắng
những thử nghiệm"
1286,sing,quynh nn,hát
1287,allows,quynh nn,"cho phép
công nhận"
1288,sets,quynh nn,"những bộ
để
đặt"
1289,little,quynh nn,"ít
một chút
nhỏ"
1290,tired,quynh nn,"mệt
mệt mỏi"
1291,bilingual,quynh nn,song ngữ
1292,same,quynh nn,"giống nhau
cùng nhau"
1293,next,quynh nn,"bên cạnh
kế tiếp"
1294,general,quynh nn,"chung
toàn thể"
1295,real,quynh nn,"thực
có thật"
1296,local,quynh nn,"địa phương
cục bộ"
1297,special,quynh nn,đặc biệt
1298,own,quynh nn,"riêng
của chính mình"
1299,personal,quynh nn,"cá nhân
riêng tư"
1300,main,quynh nn,"chính
chủ yếu"
1301,private,quynh nn,"riêng tư
bí mật"
1302,clean,quynh nn,"sạch
quét sạch"
1303,dirty,quynh nn,"bẩn
dơ dáy"
1304,different,quynh nn,khác biệt
1305,recent,quynh nn,"gần đây
vừa mới"
1306,legal,quynh nn,"hợp pháp
theo pháp luật"
1307,important,quynh nn,quan trọng
1308,professional,quynh nn,"chuyên nghiệp
chuyên gia"
1309,available,quynh nn,có sẵn
1310,future,quynh nn,tương lai
1311,possible,quynh nn,có thể
1312,popular,quynh nn,"bình dân
nổi tiếng"
1313,living,quynh nn,"cuộc sống
người sống"
1314,official,quynh nn,"viên chức
chính thức"
1315,final,quynh nn,"kết thúc
kết cục"
1316,whole,quynh nn,"đẩy đủ
toàn thể"
1317,necessary,quynh nn,"cần thiết
thiết yếu"
1318,military,quynh nn,quân đội
1319,independent,quynh nn,độc lập
1320,responsible,quynh nn,trách nhiệm
1321,excellent,quynh nn,"tuyệt vời
xuất sắc"
1322,perfect,quynh nn,hoàn hảo
1323,beautiful,quynh nn,đẹp
1324,modern,quynh nn,"hiện đại
tân thời"
1325,positive,quynh nn,tích cực
1326,normal,quynh nn,"thông thường
bình thường"
1327,minimum,quynh nn,tối thiểu
1328,traditional,quynh nn,truyền thống
1329,wrong,quynh nn,"sai
xấu"
1330,historical,quynh nn,thuộc lịch sử
1331,cultural,quynh nn,thuộc văn hóa
1332,interesting,quynh nn,thú vị
1333,religious,quynh nn,thuộc tôn giáo
1334,serious,quynh nn,nghiêm túc
1335,famous,quynh nn,nổi tiếng
1336,negative,quynh nn,"tiêu cực
phủ định"
1337,efficient,quynh nn,"có hiệu quả
có khả năng"
1338,expensive,quynh nn,"đắt tiền
xa hoa"
1339,familiar,quynh nn,"thuộc gia đình
thân thuộc"
1340,impossible,quynh nn,"không khả thi
không thể"
1341,alive,quynh nn,tồn tại
1342,convenient,quynh nn,"tiện lợi
thích hợp"
1343,opposite,quynh nn,"đối nhau
điều ngược lại"
1344,afraid,quynh nn,"sợ hãi
hoảng sợ"
1345,sad,quynh nn,buồn bã
1346,frequent,quynh nn,thường xuyên
1347,wooden,quynh nn,bằng gỗ
1348,established,quynh nn,"thành lập
xây dựng"
1349,led,quynh nn,"dẫn
dẫn dắt"
1350,earned,quynh nn,"thu
kiếm được"
1351,did,quynh nn,làm
1352,violins,quynh nn,những cái đàn violong
1353,flute,quynh nn,cái sáo
1354,music,quynh nn,âm nhạc
1355,cameras,quynh nn,"những máy chụp ảnh
những máy chụp hình"
1356,photo,quynh nn,"bức ảnh
ảnh"
1357,movie,quynh nn,phim ảnh
1358,picture,quynh nn,"hình ảnh
ảnh"
1359,films,quynh nn,những bộ phim
1360,arts,quynh nn,nghệ thuật
1361,style,quynh nn,"kiểu
phong cách"
1362,sound,quynh nn,"âm thanh
tiếng động"
1363,figures,quynh nn,"hình dáng
hình ảnh
nhân vật"
1364,songs,quynh nn,"những bài hát
những ca khúc"
1365,photography,quynh nn,"nhiếp ảnh
chụp ảnh"
1366,dances,quynh nn,"những điệu nhảy
nhảy"
1367,instruments,quynh nn,những thiết bị
1368,literature,quynh nn,văn học
1369,fashion,quynh nn,thời trang
1370,theaters,quynh nn,"những nhà hát
những rạp hát"
1371,poetry,quynh nn,thơ
1372,concerts,quynh nn,buổi hòa nhạc
1373,contest,quynh nn,"cuộc thi
cuộc đua"
1374,opening,quynh nn,"sự mở
sự khai trương"
1375,painting,quynh nn,"sơn
bức tranh"
1376,audiences,quynh nn,những khán giả
1377,collections,quynh nn,những bộ sưu tập
1378,bands,quynh nn,"những nhóm nhạc
những ban nhạc"
1379,actress,quynh nn,nữ diễn viên
1380,musical,quynh nn,thuộc âm nhạc
1381,paint,quynh nn,sơn
1382,rent,quynh nn,thuê
1383,buy,quynh nn,mua
1384,set,quynh nn,thiết lập
1385,create,quynh nn,"tạo
hình thành"
1386,keep,quynh nn,giữ
1387,enter,quynh nn,"vào
nhập"
1388,studies,quynh nn,những sinh viên
1389,teacher,quynh nn,giáo viên
1390,notes,quynh nn,những ghi chú
1391,pens,quynh nn,những cái bút
1392,schools,quynh nn,những trường học
1393,programs,quynh nn,những chương trình
1394,education,quynh nn,giáo dục
1395,sections,quynh nn,"những phần
những mặt cắt"
1396,course,quynh nn,"sân chạy đua
hướng đi"
1397,librarys,quynh nn,những thư viện
1398,tests,quynh nn,những bài kiểm tra
1399,application,quynh nn,áp dụng
1400,examples,quynh nn,những ví dụ
1401,class,quynh nn,lớp
1402,word,quynh nn,từ
1403,knowledge,quynh nn,"tri thức
kiến thức"
1404,chapter,quynh nn,chương
1405,practice,quynh nn,"luyện tập
thực hành"
1406,institutes,quynh nn,những viện
1407,idea,quynh nn,ý tưởng
1408,professors,quynh nn,những giáo sư
1409,presentation,quynh nn,"sự trình bày
sự giới thiệu"
1410,preparations,quynh nn,những sự chuẩn bị
1411,universities,quynh nn,những trường đại học
1412,lecture,quynh nn,"cuộc diễn thuyết
bài học"
1413,explanations,quynh nn,những giải thích
1414,difficulties,quynh nn,những khó khăn
1415,colleges,quynh nn,những trường cao đẳng
1416,objective,quynh nn,mục tiêu
1417,meaning,quynh nn,"có ý nghĩa
có nghĩa là"
1418,teaching,quynh nn,"dạy dỗ
giảng dạy"
1419,training,quynh nn,"đào tạo
huấn luyện"
1420,history,quynh nn,lịch sử
1421,pages,quynh nn,những trang
1422,reports,quynh nn,những báo cáo
1423,documents,quynh nn,những tài liệu
1424,research,quynh nn,nghiên cứu
1425,line,quynh nn,dòng kẻ
1426,details,quynh nn,những chi tiết
1427,technologies,quynh nn,những công nghệ
1428,project,quynh nn,những dự án
1429,sizes,quynh nn,"những cỡ
những kích thước"
1430,article,quynh nn,bài viết
1431,sciences,quynh nn,khoa học
1432,analyses,quynh nn,"những phân tích
phân tích"
1433,energy,quynh nn,năng lượng
1434,editions,quynh nn,những phiên bản
1435,unit,quynh nn,đơn vị
1436,weights,quynh nn,"những cân nặng
những trọng lượng"
1437,method,quynh nn,"phương pháp
cách thức"
1438,speeds,quynh nn,những tốc độ
1439,volume,quynh nn,"âm lượng
quyển
dung tích"
1440,lengths,quynh nn,những độ dài
1441,samples,quynh nn,những ví dụ
1442,distance,quynh nn,khoảng cách
1443,publications,quynh nn,"những ấn phẩm
những xuất bản"
1444,theory,quynh nn,"thuyết
lý thuyết"
1445,surface,quynh nn,"diện tích
bề mặt"
1446,definition,quynh nn,khái niệm
1447,scale,quynh nn,quy mô
1448,temperatures,quynh nn,những nhiệt độ
1449,technique,quynh nn,kỹ thuật
1450,mass,quynh nn,khối lượng
1451,tasks,quynh nn,"nhiệm vụ
công việc"
1452,limit,quynh nn,giới hạn
1453,quantity,quynh nn,số lượng
1454,laboratories,quynh nn,những phòng thí nghiệm
1455,depth,quynh nn,độ sâu
1456,height,quynh nn,chiều cao
1457,physics,quynh nn,vật lý
1458,philosophies,quynh nn,"triết lý
triết học"
1459,measure,quynh nn,"phép đo
đo lường"
1460,concept,quynh nn,khái niệm
1461,chemistry,quynh nn,hóa học
1462,discovery,quynh nn,cuộc khám phá
1463,formulae,quynh nn,"công thức
thể thức"
1464,investigation,quynh nn,"sự điều tra
sự tìm dấu vết"
1465,dots,quynh nn,những dấu chấm
1466,scientist,quynh nn,nhà khoa học
1467,geography,quynh nn,địa lý
1468,electric,quynh nn,điện
1469,cycle,quynh nn,chu kỳ
1470,conclusions,quynh nn,những kết luận
1471,reason,quynh nn,"lý do
nguyên do"
1472,decrease,quynh nn,"giảm bớt
hạ xuống"
1473,alcohol,quynh nn,rượu
1474,sick,quynh nn,"bệnh
ốm"
1475,hands,quynh nn,những bàn tay
1476,eye,quynh nn,con mắt
1477,health,quynh nn,sức khỏe
1478,reality,quynh nn,"thực tế
thực tại"
1479,bodies,quynh nn,những cơ thể
1480,heads,quynh nn,những cái đầu
1481,emergencies,quynh nn,những tình trạng khẩn cấp
1482,treatment,quynh nn,"sự đối xử
sự xử lý"
1483,hearts,quynh nn,những trái tim
1484,face,quynh nn,"khuôn mặt
gương mặt"
1485,cancer,quynh nn,bệnh ung thư
1486,medicine,quynh nn,"y học
thuốc"
1487,ambulance,quynh nn,xe cứu thương
1488,blood,quynh nn,máu
1489,disease,quynh nn,"bệnh
bệnh tật"
1490,hairs,quynh nn,những sợi tóc
1491,patient,quynh nn,"kiên nhẫn
nhẫn nại"
1492,hospitals,quynh nn,những bệnh viện
1493,operations,quynh nn,"sự hoạt động
quá trình"
1494,skin,quynh nn,"da
vỏ"
1495,foot,quynh nn,bàn chân
1496,diet,quynh nn,chế độ ăn uống
1497,visions,quynh nn,"tầm nhìn
sự nhìn"
1498,pain,quynh nn,"cơn đau
đau đớn"
1499,drugs,quynh nn,"thuốc
dược phẩm"
1500,viruses,quynh nn,"virus
mầm độc"
1501,brains,quynh nn,những bộ não
1502,arms,quynh nn,những cánh tay
1503,legs,quynh nn,những bàn chân
1504,mouth,quynh nn,cái miệng
1505,dreams,quynh nn,những giấc mơ
1506,accidents,quynh nn,những tai nạn
1507,necks,quynh nn,những cái cổ
1508,sight,quynh nn,"đường nhắm
thị lực"
1509,illnesses,quynh nn,"bệnh
tình trạng đau yếu"
1510,finger,quynh nn,ngón tay
1511,ear,quynh nn,tai
1512,chest,quynh nn,ngực
1513,tooth,quynh nn,răng
1514,tongues,quynh nn,những cái lưỡi
1515,nose,quynh nn,cái mũi
1516,lips,quynh nn,đôi môi
1517,back,quynh nn,"quay lại
lưng"
1518,ill,quynh nn,bệnh
1519,condition,quynh nn,điều kiện
1520,appointment,quynh nn,cuộc hẹn
1521,nurse,quynh nn,y tá
1522,action,quynh nn,hành động
1523,delivery,quynh nn,"sự giải phóng
sự giải thoát"
1524,discussion,quynh nn,cuộc tranh luận
1525,death,quynh nn,cái chết
1526,stops,quynh nn,"dừng lại
điểm dừng"
1527,traffic,quynh nn,"giao thông
sự đi lại"
1528,attacks,quynh nn,"những cuộc đấu tranh
các cuộc tấn công"
1529,battle,quynh nn,"trận chiến
cuộc tranh đấu"
1530,noises,quynh nn,"tiếng ồn
tiếng kêu"
1531,occasion,quynh nn,"dịp
thời cơ"
1532,title,quynh nn,tiêu đề
1533,benefits,quynh nn,"những lợi ích
những lợi nhuận"
1534,situation,quynh nn,"tình trạng
tình huống"
1535,religions,quynh nn,"những tôn giáo
những tín ngưỡng"
1536,efforts,quynh nn,"những nỗ lực
những cố gắng"
1537,attention,quynh nn,sự chú ý
1538,interests,quynh nn,"những lợi ích
những lợi nhuận"
1539,competitions,quynh nn,"những cuộc thi
những cuộc tranh tài"
1540,life,quynh nn,cuộc sống
1541,load,quynh nn,"tải
nạp"
1542,permission,quynh nn,"sự chấp nhận
sự cho phép"
1543,faith,quynh nn,"đức tin
lòng tin"
1544,truth,quynh nn,"sự thật
chân lý"
1545,failures,quynh nn,những thất bại
1546,signal,quynh nn,tín hiệu
1547,characters,quynh nn,những ký tự
1548,care,quynh nn,"quan tâm
chăm sóc
cẩn thận
thận trọng"
1549,origins,quynh nn,"những nguồn gốc
gốc"
1550,damage,quynh nn,"thiệt hại
phí tổn"
1551,secret,quynh nn,bí mật
1552,direction,quynh nn,hướng đi
1553,lack,quynh nn,"thiếu
sự thiếu"
1554,scenes,quynh nn,những cảnh
1555,aim,quynh nn,"sự nhắm
mục tiêu"
1556,behavior,quynh nn,"hành vi
cư xử"
1557,signature,quynh nn,chữ ký
1558,attempt,quynh nn,nỗ lực
1559,instance,quynh nn,thí dụ
1560,circles,quynh nn,những vòng tròn
1561,exit,quynh nn,thoát ra
1562,symbol,quynh nn,ký hiệu
1563,position,quynh nn,vị trí
1564,strength,quynh nn,sức mạnh
1565,experiences,quynh nn,những kinh nghiệm
1566,shape,quynh nn,hình dạng
1567,relation,quynh nn,mối quan hệ
1568,fear,quynh nn,sợ hãi
1569,permit,quynh nn,giấy phép
1570,doubt,quynh nn,nghi ngờ
1571,humor,quynh nn,hài hước
1572,possibility,quynh nn,khả năng
1573,desire,quynh nn,"mong muốn
ao ước"
1574,existence,quynh nn,sự hiện diện
1575,pleasure,quynh nn,sự hài lòng
1576,responsibilities,quynh nn,trách nhiệm
1577,space,quynh nn,không gian
1578,consequence,quynh nn,hậu quả
1579,surprises,quynh nn,"bất ngờ
sự kinh ngạc"
1580,traditions,quynh nn,những truyền thống
1581,conversation,quynh nn,cuộc hội thoại
1582,trend,quynh nn,xu hướng
1583,fault,quynh nn,lỗi sai
1584,favor,quynh nn,"thiện ý
sự quý mến"
1585,phrases,quynh nn,"những cụm từ
những câu"
1586,attitudes,quynh nn,những thói quen
1587,murder,quynh nn,"giết
tội giết người"
1588,mistakes,quynh nn,"sai lầm
lỗi lầm"
1589,honor,quynh nn,"danh dự
tôn kính"
1590,smile,quynh nn,"cười
nụ cười"
1591,danger,quynh nn,"sự nguy hiểm
mối hiểm nghèo"
1592,joy,quynh nn,niềm vui
1593,entrance,quynh nn,lối vào
1594,shadows,quynh nn,"những cái bóng
những ảo ảnh"
1595,memories,quynh nn,"những ký ức
những kỷ niệm"