,translate,listen,select,name,judge,form,speak,reverse_speak
1,66.66666666666667,5.555555555555555,5.555555555555555,11.11111111111111,11.11111111111111,0,0,0
2,72.22222222222223,11.11111111111111,0,11.11111111111111,5.555555555555555,0,0,0
3,66.66666666666667,11.11111111111111,5.555555555555555,11.11111111111111,5.555555555555555,0,0,0
4,61.111111111111114,11.11111111111111,5.555555555555555,11.11111111111111,11.11111111111111,0,0,0
5,66.66666666666667,11.11111111111111,5.555555555555555,11.11111111111111,5.555555555555555,0,0,0
6,72.22222222222223,11.11111111111111,0,11.11111111111111,5.555555555555555,0,0,0
7,61.111111111111114,16.666666666666668,5.555555555555555,11.11111111111111,5.555555555555555,0,0,0
8,66.66666666666667,11.11111111111111,5.555555555555555,11.11111111111111,5.555555555555555,0,0,0
9,72.22222222222223,11.11111111111111,5.555555555555555,11.11111111111111,0,0,0,0
10,61.111111111111114,16.666666666666668,5.555555555555555,11.11111111111111,5.555555555555555,0,0,0
11,50,16.666666666666668,5.555555555555555,11.11111111111111,16.666666666666668,0,0,0
12,50,16.666666666666668,5.555555555555555,11.11111111111111,16.666666666666668,0,0,0
13,72.22222222222223,5.555555555555555,5.555555555555555,11.11111111111111,5.555555555555555,0,0,0
14,66.66666666666667,5.555555555555555,5.555555555555555,11.11111111111111,11.11111111111111,0,0,0
15,72.22222222222223,11.11111111111111,5.555555555555555,11.11111111111111,0,0,0,0
16,61.111111111111114,11.11111111111111,5.555555555555555,11.11111111111111,11.11111111111111,0,0,0
17,72.22222222222223,11.11111111111111,0,11.11111111111111,5.555555555555555,0,0,0
18,61.111111111111114,16.666666666666668,5.555555555555555,11.11111111111111,5.555555555555555,0,0,0
19,66.66666666666667,5.555555555555555,5.555555555555555,11.11111111111111,11.11111111111111,0,0,0
20,61.111111111111114,11.11111111111111,5.555555555555555,11.11111111111111,11.11111111111111,0,0,0
21,66.66666666666667,5.555555555555555,5.555555555555555,11.11111111111111,11.11111111111111,0,0,0
22,50,16.666666666666668,5.555555555555555,11.11111111111111,16.666666666666668,0,0,0
23,72.22222222222223,11.11111111111111,0,11.11111111111111,5.555555555555555,0,0,0
24,66.66666666666667,11.11111111111111,5.555555555555555,11.11111111111111,5.555555555555555,0,0,0
25,61.111111111111114,16.666666666666668,5.555555555555555,11.11111111111111,5.555555555555555,0,0,0
26,72.22222222222223,5.555555555555555,5.555555555555555,11.11111111111111,5.555555555555555,0,0,0
27,61.111111111111114,16.666666666666668,5.555555555555555,11.11111111111111,5.555555555555555,0,0,0
28,61.111111111111114,16.666666666666668,5.555555555555555,11.11111111111111,5.555555555555555,0,0,0
29,66.66666666666667,5.555555555555555,5.555555555555555,11.11111111111111,11.11111111111111,0,0,0
30,66.66666666666667,11.11111111111111,5.555555555555555,11.11111111111111,5.555555555555555,0,0,0
31,66.66666666666667,11.11111111111111,5.555555555555555,11.11111111111111,5.555555555555555,0,0,0
32,66.66666666666667,5.555555555555555,5.555555555555555,11.11111111111111,11.11111111111111,0,0,0
33,61.111111111111114,16.666666666666668,5.555555555555555,11.11111111111111,5.555555555555555,0,0,0
34,66.66666666666667,11.11111111111111,5.555555555555555,11.11111111111111,5.555555555555555,0,0,0
35,72.22222222222223,11.11111111111111,0,11.11111111111111,5.555555555555555,0,0,0
36,61.111111111111114,11.11111111111111,5.555555555555555,11.11111111111111,11.11111111111111,0,0,0
37,66.66666666666667,11.11111111111111,5.555555555555555,11.11111111111111,5.555555555555555,0,0,0
38,66.66666666666667,11.11111111111111,5.555555555555555,11.11111111111111,5.555555555555555,0,0,0
39,72.22222222222223,5.555555555555555,5.555555555555555,11.11111111111111,5.555555555555555,0,0,0
40,66.66666666666667,11.11111111111111,5.555555555555555,11.11111111111111,5.555555555555555,0,0,0
41,72.22222222222223,11.11111111111111,0,11.11111111111111,5.555555555555555,0,0,0
42,66.66666666666667,5.555555555555555,5.555555555555555,11.11111111111111,11.11111111111111,0,0,0
43,72.22222222222223,5.555555555555555,5.555555555555555,11.11111111111111,5.555555555555555,0,0,0
44,72.22222222222223,11.11111111111111,0,11.11111111111111,5.555555555555555,0,0,0
45,66.66666666666667,5.555555555555555,5.555555555555555,11.11111111111111,11.11111111111111,0,0,0
46,72.22222222222223,11.11111111111111,5.555555555555555,11.11111111111111,0,0,0,0
47,61.111111111111114,16.666666666666668,5.555555555555555,11.11111111111111,5.555555555555555,0,0,0
48,61.111111111111114,11.11111111111111,5.555555555555555,11.11111111111111,11.11111111111111,0,0,0
49,66.66666666666667,5.555555555555555,5.555555555555555,11.11111111111111,11.11111111111111,0,0,0