,translate,listen,select,name,judge,form,speak,reverse_speak
1,72.22222222222223,16.666666666666668,0,0,5.555555555555555,5.555555555555555,0,0
2,77.77777777777777,16.666666666666668,0,0,0,5.555555555555555,0,0
3,66.66666666666667,27.77777777777778,0,0,0,5.555555555555555,0,0
4,66.66666666666667,27.77777777777778,0,0,0,5.555555555555555,0,0
5,66.66666666666667,22.22222222222222,0,0,0,11.11111111111111,0,0
6,66.66666666666667,27.77777777777778,0,0,0,5.555555555555555,0,0
7,66.66666666666667,27.77777777777778,0,0,0,5.555555555555555,0,0
8,66.66666666666667,27.77777777777778,0,0,0,5.555555555555555,0,0
9,66.66666666666667,27.77777777777778,0,0,0,5.555555555555555,0,0
10,66.66666666666667,27.77777777777778,0,0,0,5.555555555555555,0,0
11,77.77777777777777,16.666666666666668,0,0,0,5.555555555555555,0,0
12,77.77777777777777,16.666666666666668,0,0,0,5.555555555555555,0,0
13,66.66666666666667,22.22222222222222,0,0,0,11.11111111111111,0,0
14,72.22222222222223,16.666666666666668,0,0,5.555555555555555,5.555555555555555,0,0
15,72.22222222222223,11.11111111111111,0,0,11.11111111111111,5.555555555555555,0,0
16,77.77777777777777,16.666666666666668,0,0,0,5.555555555555555,0,0
17,66.66666666666667,22.22222222222222,0,0,5.555555555555555,5.555555555555555,0,0
18,72.22222222222223,11.11111111111111,0,0,11.11111111111111,5.555555555555555,0,0
19,72.22222222222223,22.22222222222222,0,0,0,5.555555555555555,0,0
20,66.66666666666667,27.77777777777778,0,0,0,5.555555555555555,0,0
21,77.77777777777777,16.666666666666668,0,0,0,5.555555555555555,0,0
22,72.22222222222223,16.666666666666668,0,0,5.555555555555555,5.555555555555555,0,0
23,66.66666666666667,22.22222222222222,0,0,5.555555555555555,5.555555555555555,0,0
24,72.22222222222223,11.11111111111111,0,0,11.11111111111111,5.555555555555555,0,0
25,66.66666666666667,22.22222222222222,0,0,5.555555555555555,5.555555555555555,0,0
26,72.22222222222223,22.22222222222222,0,0,0,5.555555555555555,0,0
27,77.77777777777777,16.666666666666668,0,0,0,5.555555555555555,0,0
28,66.66666666666667,22.22222222222222,0,0,5.555555555555555,5.555555555555555,0,0
29,72.22222222222223,16.666666666666668,0,0,5.555555555555555,5.555555555555555,0,0
30,77.77777777777777,16.666666666666668,0,0,0,5.555555555555555,0,0
31,72.22222222222223,16.666666666666668,0,0,5.555555555555555,5.555555555555555,0,0
32,66.66666666666667,22.22222222222222,0,0,0,11.11111111111111,0,0
33,72.22222222222223,16.666666666666668,0,0,5.555555555555555,5.555555555555555,0,0
34,66.66666666666667,22.22222222222222,0,0,0,11.11111111111111,0,0
35,66.66666666666667,22.22222222222222,0,0,0,11.11111111111111,0,0
36,66.66666666666667,22.22222222222222,0,0,5.555555555555555,5.555555555555555,0,0
37,66.66666666666667,22.22222222222222,0,0,5.555555555555555,5.555555555555555,0,0
38,66.66666666666667,22.22222222222222,0,0,0,11.11111111111111,0,0
39,77.77777777777777,16.666666666666668,0,0,0,5.555555555555555,0,0
40,72.22222222222223,22.22222222222222,0,0,0,5.555555555555555,0,0
41,72.22222222222223,11.11111111111111,0,0,11.11111111111111,5.555555555555555,0,0
42,72.22222222222223,11.11111111111111,0,0,11.11111111111111,5.555555555555555,0,0
43,77.77777777777777,16.666666666666668,0,0,0,5.555555555555555,0,0
44,77.77777777777777,16.666666666666668,0,0,0,5.555555555555555,0,0
45,72.22222222222223,22.22222222222222,0,0,0,5.555555555555555,0,0
46,66.66666666666667,27.77777777777778,0,0,0,5.555555555555555,0,0
47,66.66666666666667,22.22222222222222,0,0,5.555555555555555,5.555555555555555,0,0
48,77.77777777777777,16.666666666666668,0,0,0,5.555555555555555,0,0
49,72.22222222222223,11.11111111111111,0,0,11.11111111111111,5.555555555555555,0,0