,translate,listen,select,name,judge,form,speak,reverse_speak
1,66.66666666666667,22.22222222222222,0,0,11.11111111111111,0,0,0
2,55.55555555555556,38.888888888888886,0,0,5.555555555555555,0,0,0
3,55.55555555555556,38.888888888888886,0,0,5.555555555555555,0,0,0
4,72.22222222222223,27.77777777777778,0,0,0,0,0,0
5,66.66666666666667,22.22222222222222,0,0,11.11111111111111,0,0,0
6,66.66666666666667,22.22222222222222,0,0,11.11111111111111,0,0,0
7,66.66666666666667,22.22222222222222,0,0,11.11111111111111,0,0,0
8,66.66666666666667,22.22222222222222,0,0,11.11111111111111,0,0,0
9,66.66666666666667,33.333333333333336,0,0,0,0,0,0
10,72.22222222222223,27.77777777777778,0,0,0,0,0,0
11,61.111111111111114,38.888888888888886,0,0,0,0,0,0
12,61.111111111111114,38.888888888888886,0,0,0,0,0,0
13,66.66666666666667,22.22222222222222,0,0,11.11111111111111,0,0,0
14,72.22222222222223,27.77777777777778,0,0,0,0,0,0
15,61.111111111111114,38.888888888888886,0,0,0,0,0,0
16,72.22222222222223,27.77777777777778,0,0,0,0,0,0
17,77.77777777777777,16.666666666666668,0,0,5.555555555555555,0,0,0
18,72.22222222222223,27.77777777777778,0,0,0,0,0,0
19,72.22222222222223,27.77777777777778,0,0,0,0,0,0
20,77.77777777777777,16.666666666666668,0,0,5.555555555555555,0,0,0
21,72.22222222222223,27.77777777777778,0,0,0,0,0,0
22,72.22222222222223,27.77777777777778,0,0,0,0,0,0
23,61.111111111111114,38.888888888888886,0,0,0,0,0,0
24,72.22222222222223,27.77777777777778,0,0,0,0,0,0
25,66.66666666666667,33.333333333333336,0,0,0,0,0,0
26,72.22222222222223,27.77777777777778,0,0,0,0,0,0
27,77.77777777777777,16.666666666666668,0,0,5.555555555555555,0,0,0
28,61.111111111111114,38.888888888888886,0,0,0,0,0,0
29,72.22222222222223,27.77777777777778,0,0,0,0,0,0
30,66.66666666666667,33.333333333333336,0,0,0,0,0,0
31,77.77777777777777,16.666666666666668,0,0,5.555555555555555,0,0,0
32,72.22222222222223,27.77777777777778,0,0,0,0,0,0
33,77.77777777777777,16.666666666666668,0,0,5.555555555555555,0,0,0
34,77.77777777777777,16.666666666666668,0,0,5.555555555555555,0,0,0
35,72.22222222222223,27.77777777777778,0,0,0,0,0,0
36,66.66666666666667,22.22222222222222,0,0,11.11111111111111,0,0,0
37,72.22222222222223,27.77777777777778,0,0,0,0,0,0
38,72.22222222222223,27.77777777777778,0,0,0,0,0,0
39,72.22222222222223,27.77777777777778,0,0,0,0,0,0
40,66.66666666666667,33.333333333333336,0,0,0,0,0,0
41,66.66666666666667,33.333333333333336,0,0,0,0,0,0
42,55.55555555555556,38.888888888888886,0,0,5.555555555555555,0,0,0
43,77.77777777777777,16.666666666666668,0,0,5.555555555555555,0,0,0
44,55.55555555555556,38.888888888888886,0,0,5.555555555555555,0,0,0
45,61.111111111111114,38.888888888888886,0,0,0,0,0,0
46,72.22222222222223,27.77777777777778,0,0,0,0,0,0
47,72.22222222222223,27.77777777777778,0,0,0,0,0,0
48,55.55555555555556,38.888888888888886,0,0,5.555555555555555,0,0,0
49,66.66666666666667,33.333333333333336,0,0,0,0,0,0