,translate,listen,select,name,judge,form,speak,reverse_speak
1,77.77777777777777,22.22222222222222,0,0,0,0,0,0
2,66.66666666666667,22.22222222222222,0,0,11.11111111111111,0,0,0
3,83.33333333333333,11.11111111111111,0,0,5.555555555555555,0,0,0
4,77.77777777777777,16.666666666666668,0,0,5.555555555555555,0,0,0
5,72.22222222222223,27.77777777777778,0,0,0,0,0,0
6,61.111111111111114,38.888888888888886,0,0,0,0,0,0
7,66.66666666666667,27.77777777777778,0,0,5.555555555555555,0,0,0
8,72.22222222222223,16.666666666666668,0,0,11.11111111111111,0,0,0
9,66.66666666666667,27.77777777777778,0,0,5.555555555555555,0,0,0
10,72.22222222222223,27.77777777777778,0,0,0,0,0,0
11,55.55555555555556,27.77777777777778,0,0,16.666666666666668,0,0,0
12,77.77777777777777,0,0,0,22.22222222222222,0,0,0
13,72.22222222222223,11.11111111111111,0,0,16.666666666666668,0,0,0
14,66.66666666666667,33.333333333333336,0,0,0,0,0,0
15,72.22222222222223,27.77777777777778,0,0,0,0,0,0
16,66.66666666666667,22.22222222222222,0,0,11.11111111111111,0,0,0
17,83.33333333333333,16.666666666666668,0,0,0,0,0,0
18,55.55555555555556,27.77777777777778,0,0,16.666666666666668,0,0,0
19,66.66666666666667,22.22222222222222,0,0,11.11111111111111,0,0,0
20,72.22222222222223,11.11111111111111,0,0,16.666666666666668,0,0,0
21,77.77777777777777,22.22222222222222,0,0,0,0,0,0
22,72.22222222222223,27.77777777777778,0,0,0,0,0,0
23,83.33333333333333,16.666666666666668,0,0,0,0,0,0
24,77.77777777777777,11.11111111111111,0,0,11.11111111111111,0,0,0
25,72.22222222222223,27.77777777777778,0,0,0,0,0,0
26,72.22222222222223,16.666666666666668,0,0,11.11111111111111,0,0,0
27,72.22222222222223,27.77777777777778,0,0,0,0,0,0
28,72.22222222222223,27.77777777777778,0,0,0,0,0,0
29,72.22222222222223,27.77777777777778,0,0,0,0,0,0
30,61.111111111111114,22.22222222222222,0,0,16.666666666666668,0,0,0
31,66.66666666666667,22.22222222222222,0,0,11.11111111111111,0,0,0
32,55.55555555555556,22.22222222222222,0,0,22.22222222222222,0,0,0
33,66.66666666666667,22.22222222222222,0,0,11.11111111111111,0,0,0
34,72.22222222222223,16.666666666666668,0,0,11.11111111111111,0,0,0
35,72.22222222222223,16.666666666666668,0,0,11.11111111111111,0,0,0
36,72.22222222222223,22.22222222222222,0,0,5.555555555555555,0,0,0
37,72.22222222222223,22.22222222222222,0,0,5.555555555555555,0,0,0
38,77.77777777777777,16.666666666666668,0,0,5.555555555555555,0,0,0
39,66.66666666666667,27.77777777777778,0,0,5.555555555555555,0,0,0
40,55.55555555555556,27.77777777777778,0,0,16.666666666666668,0,0,0
41,83.33333333333333,5.555555555555555,0,0,11.11111111111111,0,0,0
42,77.77777777777777,22.22222222222222,0,0,0,0,0,0
43,77.77777777777777,22.22222222222222,0,0,0,0,0,0
44,72.22222222222223,16.666666666666668,0,0,11.11111111111111,0,0,0
45,72.22222222222223,16.666666666666668,0,0,11.11111111111111,0,0,0
46,72.22222222222223,27.77777777777778,0,0,0,0,0,0
47,72.22222222222223,11.11111111111111,0,0,16.666666666666668,0,0,0
48,72.22222222222223,22.22222222222222,0,0,5.555555555555555,0,0,0
49,61.111111111111114,38.888888888888886,0,0,0,0,0,0