,translate,listen,select,name,judge,form,speak,reverse_speak
1,55.55555555555556,16.666666666666668,5.555555555555555,11.11111111111111,11.11111111111111,0,0,0
2,50,27.77777777777778,0,11.11111111111111,11.11111111111111,0,0,0
3,44.44444444444444,22.22222222222222,5.555555555555555,11.11111111111111,16.666666666666668,0,0,0
4,55.55555555555556,16.666666666666668,5.555555555555555,11.11111111111111,11.11111111111111,0,0,0
5,50,22.22222222222222,5.555555555555555,11.11111111111111,11.11111111111111,0,0,0
6,55.55555555555556,22.22222222222222,0,11.11111111111111,11.11111111111111,0,0,0
7,55.55555555555556,22.22222222222222,0,11.11111111111111,11.11111111111111,0,0,0
8,55.55555555555556,16.666666666666668,5.555555555555555,11.11111111111111,11.11111111111111,0,0,0
9,61.111111111111114,16.666666666666668,0,11.11111111111111,11.11111111111111,0,0,0
10,38.888888888888886,27.77777777777778,11.11111111111111,11.11111111111111,11.11111111111111,0,0,0
11,61.111111111111114,22.22222222222222,0,11.11111111111111,5.555555555555555,0,0,0
12,38.888888888888886,33.333333333333336,5.555555555555555,11.11111111111111,11.11111111111111,0,0,0
13,50,22.22222222222222,5.555555555555555,11.11111111111111,11.11111111111111,0,0,0
14,44.44444444444444,27.77777777777778,5.555555555555555,11.11111111111111,11.11111111111111,0,0,0
15,50,22.22222222222222,5.555555555555555,11.11111111111111,11.11111111111111,0,0,0
16,50,27.77777777777778,5.555555555555555,11.11111111111111,5.555555555555555,0,0,0
17,55.55555555555556,22.22222222222222,0,11.11111111111111,11.11111111111111,0,0,0
18,50,22.22222222222222,5.555555555555555,11.11111111111111,11.11111111111111,0,0,0
19,61.111111111111114,16.666666666666668,0,11.11111111111111,11.11111111111111,0,0,0
20,50,22.22222222222222,5.555555555555555,11.11111111111111,11.11111111111111,0,0,0
21,38.888888888888886,33.333333333333336,11.11111111111111,11.11111111111111,5.555555555555555,0,0,0
22,55.55555555555556,16.666666666666668,0,11.11111111111111,16.666666666666668,0,0,0
23,44.44444444444444,27.77777777777778,11.11111111111111,11.11111111111111,5.555555555555555,0,0,0
24,38.888888888888886,27.77777777777778,11.11111111111111,11.11111111111111,11.11111111111111,0,0,0
25,50,27.77777777777778,0,11.11111111111111,11.11111111111111,0,0,0
26,50,27.77777777777778,0,11.11111111111111,11.11111111111111,0,0,0
27,44.44444444444444,22.22222222222222,5.555555555555555,11.11111111111111,16.666666666666668,0,0,0
28,55.55555555555556,16.666666666666668,5.555555555555555,11.11111111111111,11.11111111111111,0,0,0
29,44.44444444444444,22.22222222222222,5.555555555555555,11.11111111111111,16.666666666666668,0,0,0
30,38.888888888888886,33.333333333333336,5.555555555555555,11.11111111111111,11.11111111111111,0,0,0
31,55.55555555555556,22.22222222222222,0,11.11111111111111,11.11111111111111,0,0,0
32,44.44444444444444,27.77777777777778,0,11.11111111111111,16.666666666666668,0,0,0
33,61.111111111111114,16.666666666666668,0,11.11111111111111,11.11111111111111,0,0,0
34,61.111111111111114,16.666666666666668,0,11.11111111111111,11.11111111111111,0,0,0
35,55.55555555555556,16.666666666666668,0,11.11111111111111,16.666666666666668,0,0,0
36,50,27.77777777777778,0,11.11111111111111,11.11111111111111,0,0,0
37,55.55555555555556,22.22222222222222,0,11.11111111111111,11.11111111111111,0,0,0
38,44.44444444444444,27.77777777777778,5.555555555555555,11.11111111111111,11.11111111111111,0,0,0
39,55.55555555555556,22.22222222222222,0,11.11111111111111,11.11111111111111,0,0,0
40,50,16.666666666666668,5.555555555555555,11.11111111111111,16.666666666666668,0,0,0
41,50,27.77777777777778,0,11.11111111111111,11.11111111111111,0,0,0
42,55.55555555555556,22.22222222222222,5.555555555555555,11.11111111111111,5.555555555555555,0,0,0
43,61.111111111111114,22.22222222222222,0,11.11111111111111,5.555555555555555,0,0,0
44,44.44444444444444,27.77777777777778,5.555555555555555,11.11111111111111,11.11111111111111,0,0,0
45,50,22.22222222222222,5.555555555555555,11.11111111111111,11.11111111111111,0,0,0
46,55.55555555555556,22.22222222222222,0,11.11111111111111,11.11111111111111,0,0,0
47,55.55555555555556,22.22222222222222,0,11.11111111111111,11.11111111111111,0,0,0
48,44.44444444444444,16.666666666666668,11.11111111111111,11.11111111111111,16.666666666666668,0,0,0
49,50,22.22222222222222,5.555555555555555,11.11111111111111,11.11111111111111,0,0,0