,translate,listen,select,name,judge,form,speak,reverse_speak
1,55.55555555555556,16.666666666666668,5.555555555555555,11.11111111111111,11.11111111111111,0,0,0
2,50,27.77777777777778,11.11111111111111,11.11111111111111,0,0,0,0
3,61.111111111111114,22.22222222222222,5.555555555555555,11.11111111111111,0,0,0,0
4,61.111111111111114,22.22222222222222,5.555555555555555,11.11111111111111,0,0,0,0
5,66.66666666666667,16.666666666666668,5.555555555555555,11.11111111111111,0,0,0,0
6,33.333333333333336,33.333333333333336,11.11111111111111,11.11111111111111,11.11111111111111,0,0,0
7,50,27.77777777777778,5.555555555555555,11.11111111111111,5.555555555555555,0,0,0
8,61.111111111111114,22.22222222222222,0,11.11111111111111,5.555555555555555,0,0,0
9,66.66666666666667,16.666666666666668,5.555555555555555,11.11111111111111,0,0,0,0
10,55.55555555555556,16.666666666666668,11.11111111111111,11.11111111111111,5.555555555555555,0,0,0
11,61.111111111111114,16.666666666666668,5.555555555555555,11.11111111111111,5.555555555555555,0,0,0
12,55.55555555555556,22.22222222222222,5.555555555555555,11.11111111111111,5.555555555555555,0,0,0
13,50,22.22222222222222,5.555555555555555,11.11111111111111,11.11111111111111,0,0,0
14,66.66666666666667,16.666666666666668,5.555555555555555,11.11111111111111,0,0,0,0
15,61.111111111111114,0,5.555555555555555,11.11111111111111,22.22222222222222,0,0,0
16,61.111111111111114,22.22222222222222,5.555555555555555,11.11111111111111,0,0,0,0
17,61.111111111111114,22.22222222222222,0,11.11111111111111,5.555555555555555,0,0,0
18,44.44444444444444,33.333333333333336,5.555555555555555,11.11111111111111,5.555555555555555,0,0,0
19,61.111111111111114,22.22222222222222,5.555555555555555,11.11111111111111,0,0,0,0
20,50,27.77777777777778,11.11111111111111,11.11111111111111,0,0,0,0
21,61.111111111111114,16.666666666666668,0,11.11111111111111,11.11111111111111,0,0,0
22,72.22222222222223,11.11111111111111,5.555555555555555,11.11111111111111,0,0,0,0
23,55.55555555555556,27.77777777777778,5.555555555555555,11.11111111111111,0,0,0,0
24,55.55555555555556,16.666666666666668,5.555555555555555,11.11111111111111,11.11111111111111,0,0,0
25,61.111111111111114,16.666666666666668,5.555555555555555,11.11111111111111,5.555555555555555,0,0,0
26,44.44444444444444,27.77777777777778,11.11111111111111,11.11111111111111,5.555555555555555,0,0,0
27,61.111111111111114,11.11111111111111,5.555555555555555,11.11111111111111,11.11111111111111,0,0,0
28,55.55555555555556,16.666666666666668,11.11111111111111,11.11111111111111,5.555555555555555,0,0,0
29,50,27.77777777777778,5.555555555555555,11.11111111111111,5.555555555555555,0,0,0
30,66.66666666666667,11.11111111111111,5.555555555555555,11.11111111111111,5.555555555555555,0,0,0
31,55.55555555555556,22.22222222222222,5.555555555555555,11.11111111111111,5.555555555555555,0,0,0
32,55.55555555555556,16.666666666666668,5.555555555555555,11.11111111111111,11.11111111111111,0,0,0
33,50,22.22222222222222,11.11111111111111,11.11111111111111,5.555555555555555,0,0,0
34,55.55555555555556,22.22222222222222,5.555555555555555,11.11111111111111,5.555555555555555,0,0,0
35,44.44444444444444,33.333333333333336,0,11.11111111111111,11.11111111111111,0,0,0
36,50,22.22222222222222,5.555555555555555,11.11111111111111,11.11111111111111,0,0,0
37,50,16.666666666666668,11.11111111111111,11.11111111111111,11.11111111111111,0,0,0
38,61.111111111111114,16.666666666666668,5.555555555555555,11.11111111111111,5.555555555555555,0,0,0
39,61.111111111111114,22.22222222222222,5.555555555555555,11.11111111111111,0,0,0,0
40,55.55555555555556,16.666666666666668,5.555555555555555,11.11111111111111,11.11111111111111,0,0,0
41,66.66666666666667,11.11111111111111,5.555555555555555,11.11111111111111,5.555555555555555,0,0,0
42,50,22.22222222222222,5.555555555555555,11.11111111111111,11.11111111111111,0,0,0
43,66.66666666666667,16.666666666666668,5.555555555555555,11.11111111111111,0,0,0,0
44,61.111111111111114,11.11111111111111,11.11111111111111,11.11111111111111,5.555555555555555,0,0,0
45,55.55555555555556,22.22222222222222,11.11111111111111,11.11111111111111,0,0,0,0
46,55.55555555555556,22.22222222222222,5.555555555555555,11.11111111111111,5.555555555555555,0,0,0
47,66.66666666666667,11.11111111111111,5.555555555555555,11.11111111111111,5.555555555555555,0,0,0
48,50,22.22222222222222,11.11111111111111,11.11111111111111,5.555555555555555,0,0,0
49,61.111111111111114,11.11111111111111,0,11.11111111111111,16.666666666666668,0,0,0