,translate,listen,select,name,judge,form,speak,reverse_speak
1,55.55555555555556,22.22222222222222,5.555555555555555,16.666666666666668,0,0,0,0
2,61.111111111111114,16.666666666666668,16.666666666666668,5.555555555555555,0,0,0,0
3,61.111111111111114,16.666666666666668,16.666666666666668,5.555555555555555,0,0,0,0
4,61.111111111111114,16.666666666666668,16.666666666666668,5.555555555555555,0,0,0,0
5,55.55555555555556,22.22222222222222,5.555555555555555,16.666666666666668,0,0,0,0
6,55.55555555555556,16.666666666666668,5.555555555555555,16.666666666666668,5.555555555555555,0,0,0
7,38.888888888888886,27.77777777777778,16.666666666666668,11.11111111111111,5.555555555555555,0,0,0
8,61.111111111111114,16.666666666666668,16.666666666666668,5.555555555555555,0,0,0,0
9,50,27.77777777777778,5.555555555555555,16.666666666666668,0,0,0,0
10,50,27.77777777777778,5.555555555555555,16.666666666666668,0,0,0,0
11,50,22.22222222222222,5.555555555555555,16.666666666666668,5.555555555555555,0,0,0
12,55.55555555555556,16.666666666666668,16.666666666666668,5.555555555555555,5.555555555555555,0,0,0
13,50,27.77777777777778,5.555555555555555,16.666666666666668,0,0,0,0
14,50,22.22222222222222,5.555555555555555,16.666666666666668,5.555555555555555,0,0,0
15,55.55555555555556,16.666666666666668,16.666666666666668,5.555555555555555,5.555555555555555,0,0,0
16,50,27.77777777777778,5.555555555555555,16.666666666666668,0,0,0,0
17,55.55555555555556,16.666666666666668,16.666666666666668,5.555555555555555,5.555555555555555,0,0,0
18,55.55555555555556,16.666666666666668,16.666666666666668,5.555555555555555,5.555555555555555,0,0,0
19,50,27.77777777777778,5.555555555555555,16.666666666666668,0,0,0,0
20,55.55555555555556,16.666666666666668,5.555555555555555,16.666666666666668,5.555555555555555,0,0,0
21,61.111111111111114,16.666666666666668,16.666666666666668,5.555555555555555,0,0,0,0
22,55.55555555555556,22.22222222222222,5.555555555555555,16.666666666666668,0,0,0,0
23,55.55555555555556,16.666666666666668,5.555555555555555,16.666666666666668,5.555555555555555,0,0,0
24,61.111111111111114,16.666666666666668,16.666666666666668,5.555555555555555,0,0,0,0
25,50,27.77777777777778,5.555555555555555,16.666666666666668,0,0,0,0
26,55.55555555555556,16.666666666666668,5.555555555555555,16.666666666666668,5.555555555555555,0,0,0
27,50,27.77777777777778,5.555555555555555,16.666666666666668,0,0,0,0
28,55.55555555555556,16.666666666666668,5.555555555555555,16.666666666666668,5.555555555555555,0,0,0
29,61.111111111111114,16.666666666666668,0,16.666666666666668,5.555555555555555,0,0,0
30,55.55555555555556,16.666666666666668,16.666666666666668,5.555555555555555,5.555555555555555,0,0,0
31,55.55555555555556,16.666666666666668,16.666666666666668,5.555555555555555,5.555555555555555,0,0,0
32,50,22.22222222222222,5.555555555555555,16.666666666666668,5.555555555555555,0,0,0
33,55.55555555555556,16.666666666666668,16.666666666666668,5.555555555555555,5.555555555555555,0,0,0
34,50,27.77777777777778,5.555555555555555,16.666666666666668,0,0,0,0
35,50,27.77777777777778,5.555555555555555,16.666666666666668,0,0,0,0
36,61.111111111111114,16.666666666666668,16.666666666666668,5.555555555555555,0,0,0,0
37,38.888888888888886,27.77777777777778,16.666666666666668,11.11111111111111,5.555555555555555,0,0,0
38,38.888888888888886,27.77777777777778,16.666666666666668,11.11111111111111,5.555555555555555,0,0,0
39,55.55555555555556,16.666666666666668,16.666666666666668,5.555555555555555,5.555555555555555,0,0,0
40,50,27.77777777777778,5.555555555555555,16.666666666666668,0,0,0,0
41,61.111111111111114,16.666666666666668,0,16.666666666666668,5.555555555555555,0,0,0
42,50,27.77777777777778,5.555555555555555,16.666666666666668,0,0,0,0
43,50,27.77777777777778,5.555555555555555,16.666666666666668,0,0,0,0
44,55.55555555555556,16.666666666666668,5.555555555555555,16.666666666666668,5.555555555555555,0,0,0
45,50,27.77777777777778,5.555555555555555,16.666666666666668,0,0,0,0
46,61.111111111111114,16.666666666666668,16.666666666666668,5.555555555555555,0,0,0,0
47,61.111111111111114,16.666666666666668,0,16.666666666666668,5.555555555555555,0,0,0
48,61.111111111111114,16.666666666666668,0,16.666666666666668,5.555555555555555,0,0,0
49,50,27.77777777777778,5.555555555555555,16.666666666666668,0,0,0,0