,translate,listen,select,name,judge,form,speak,reverse_speak
1,50,16.666666666666668,11.11111111111111,16.666666666666668,5.555555555555555,0,0,0
2,50,22.22222222222222,5.555555555555555,22.22222222222222,0,0,0,0
3,50,5.555555555555555,11.11111111111111,22.22222222222222,11.11111111111111,0,0,0
4,50,11.11111111111111,11.11111111111111,16.666666666666668,11.11111111111111,0,0,0
5,50,11.11111111111111,16.666666666666668,16.666666666666668,5.555555555555555,0,0,0
6,55.55555555555556,16.666666666666668,11.11111111111111,16.666666666666668,0,0,0,0
7,50,16.666666666666668,11.11111111111111,16.666666666666668,5.555555555555555,0,0,0
8,55.55555555555556,11.11111111111111,5.555555555555555,22.22222222222222,5.555555555555555,0,0,0
9,44.44444444444444,16.666666666666668,11.11111111111111,22.22222222222222,5.555555555555555,0,0,0
10,61.111111111111114,0,16.666666666666668,16.666666666666668,5.555555555555555,0,0,0
11,66.66666666666667,5.555555555555555,5.555555555555555,22.22222222222222,0,0,0,0
12,50,16.666666666666668,11.11111111111111,22.22222222222222,0,0,0,0
13,50,22.22222222222222,11.11111111111111,16.666666666666668,0,0,0,0
14,55.55555555555556,16.666666666666668,5.555555555555555,22.22222222222222,0,0,0,0
15,66.66666666666667,5.555555555555555,11.11111111111111,16.666666666666668,0,0,0,0
16,50,11.11111111111111,16.666666666666668,11.11111111111111,11.11111111111111,0,0,0
17,66.66666666666667,5.555555555555555,0,22.22222222222222,5.555555555555555,0,0,0
18,50,22.22222222222222,5.555555555555555,22.22222222222222,0,0,0,0
19,55.55555555555556,16.666666666666668,5.555555555555555,22.22222222222222,0,0,0,0
20,50,11.11111111111111,11.11111111111111,22.22222222222222,5.555555555555555,0,0,0
21,44.44444444444444,22.22222222222222,5.555555555555555,22.22222222222222,5.555555555555555,0,0,0
22,61.111111111111114,5.555555555555555,5.555555555555555,22.22222222222222,5.555555555555555,0,0,0
23,61.111111111111114,0,11.11111111111111,22.22222222222222,5.555555555555555,0,0,0
24,55.55555555555556,5.555555555555555,11.11111111111111,22.22222222222222,5.555555555555555,0,0,0
25,55.55555555555556,5.555555555555555,11.11111111111111,22.22222222222222,5.555555555555555,0,0,0
26,44.44444444444444,22.22222222222222,16.666666666666668,11.11111111111111,5.555555555555555,0,0,0
27,55.55555555555556,5.555555555555555,11.11111111111111,22.22222222222222,5.555555555555555,0,0,0
28,61.111111111111114,5.555555555555555,5.555555555555555,22.22222222222222,5.555555555555555,0,0,0
29,50,16.666666666666668,11.11111111111111,22.22222222222222,0,0,0,0
30,61.111111111111114,11.11111111111111,11.11111111111111,16.666666666666668,0,0,0,0
31,55.55555555555556,11.11111111111111,11.11111111111111,16.666666666666668,5.555555555555555,0,0,0
32,55.55555555555556,16.666666666666668,5.555555555555555,22.22222222222222,0,0,0,0
33,50,16.666666666666668,16.666666666666668,11.11111111111111,5.555555555555555,0,0,0
34,66.66666666666667,5.555555555555555,11.11111111111111,16.666666666666668,0,0,0,0
35,50,11.11111111111111,22.22222222222222,5.555555555555555,11.11111111111111,0,0,0
36,50,22.22222222222222,11.11111111111111,16.666666666666668,0,0,0,0
37,44.44444444444444,22.22222222222222,5.555555555555555,22.22222222222222,5.555555555555555,0,0,0
38,50,16.666666666666668,11.11111111111111,22.22222222222222,0,0,0,0
39,50,22.22222222222222,16.666666666666668,11.11111111111111,0,0,0,0
40,50,11.11111111111111,16.666666666666668,16.666666666666668,5.555555555555555,0,0,0
41,50,16.666666666666668,5.555555555555555,22.22222222222222,5.555555555555555,0,0,0
42,44.44444444444444,16.666666666666668,11.11111111111111,22.22222222222222,5.555555555555555,0,0,0
43,66.66666666666667,0,0,22.22222222222222,11.11111111111111,0,0,0
44,61.111111111111114,5.555555555555555,11.11111111111111,16.666666666666668,5.555555555555555,0,0,0
45,55.55555555555556,11.11111111111111,5.555555555555555,22.22222222222222,5.555555555555555,0,0,0
46,50,22.22222222222222,5.555555555555555,22.22222222222222,0,0,0,0
47,44.44444444444444,16.666666666666668,5.555555555555555,22.22222222222222,11.11111111111111,0,0,0
48,55.55555555555556,11.11111111111111,11.11111111111111,22.22222222222222,0,0,0,0
49,55.55555555555556,5.555555555555555,11.11111111111111,22.22222222222222,5.555555555555555,0,0,0