,translate,listen,select,name,judge,form,speak,reverse_speak
1,44.44444444444444,5.555555555555555,16.666666666666668,27.77777777777778,5.555555555555555,0,0,0
2,44.44444444444444,5.555555555555555,16.666666666666668,27.77777777777778,5.555555555555555,0,0,0
3,38.888888888888886,5.555555555555555,11.11111111111111,38.888888888888886,5.555555555555555,0,0,0
4,38.888888888888886,5.555555555555555,11.11111111111111,38.888888888888886,5.555555555555555,0,0,0
5,44.44444444444444,5.555555555555555,16.666666666666668,27.77777777777778,5.555555555555555,0,0,0
6,50,0,11.11111111111111,38.888888888888886,0,0,0,0
7,38.888888888888886,16.666666666666668,5.555555555555555,38.888888888888886,0,0,0,0
8,50,5.555555555555555,5.555555555555555,38.888888888888886,0,0,0,0
9,50,0,11.11111111111111,38.888888888888886,0,0,0,0
10,38.888888888888886,5.555555555555555,11.11111111111111,38.888888888888886,5.555555555555555,0,0,0
11,44.44444444444444,5.555555555555555,16.666666666666668,27.77777777777778,5.555555555555555,0,0,0
12,38.888888888888886,16.666666666666668,11.11111111111111,33.333333333333336,0,0,0,0
13,44.44444444444444,11.11111111111111,11.11111111111111,33.333333333333336,0,0,0,0
14,50,0,11.11111111111111,38.888888888888886,0,0,0,0
15,38.888888888888886,16.666666666666668,11.11111111111111,33.333333333333336,0,0,0,0
16,44.44444444444444,11.11111111111111,11.11111111111111,33.333333333333336,0,0,0,0
17,50,0,11.11111111111111,38.888888888888886,0,0,0,0
18,44.44444444444444,11.11111111111111,11.11111111111111,33.333333333333336,0,0,0,0
19,50,0,11.11111111111111,38.888888888888886,0,0,0,0
20,50,5.555555555555555,5.555555555555555,38.888888888888886,0,0,0,0
21,44.44444444444444,5.555555555555555,11.11111111111111,38.888888888888886,0,0,0,0
22,44.44444444444444,5.555555555555555,11.11111111111111,38.888888888888886,0,0,0,0
23,38.888888888888886,5.555555555555555,11.11111111111111,38.888888888888886,5.555555555555555,0,0,0
24,38.888888888888886,5.555555555555555,11.11111111111111,38.888888888888886,5.555555555555555,0,0,0
25,44.44444444444444,11.11111111111111,11.11111111111111,33.333333333333336,0,0,0,0
26,50,0,11.11111111111111,38.888888888888886,0,0,0,0
27,50,0,11.11111111111111,38.888888888888886,0,0,0,0
28,44.44444444444444,11.11111111111111,11.11111111111111,33.333333333333336,0,0,0,0
29,38.888888888888886,16.666666666666668,22.22222222222222,16.666666666666668,5.555555555555555,0,0,0
30,38.888888888888886,16.666666666666668,5.555555555555555,38.888888888888886,0,0,0,0
31,38.888888888888886,5.555555555555555,11.11111111111111,38.888888888888886,5.555555555555555,0,0,0
32,50,5.555555555555555,5.555555555555555,38.888888888888886,0,0,0,0
33,38.888888888888886,5.555555555555555,11.11111111111111,38.888888888888886,5.555555555555555,0,0,0
34,44.44444444444444,11.11111111111111,11.11111111111111,33.333333333333336,0,0,0,0
35,38.888888888888886,16.666666666666668,5.555555555555555,38.888888888888886,0,0,0,0
36,38.888888888888886,16.666666666666668,11.11111111111111,33.333333333333336,0,0,0,0
37,38.888888888888886,16.666666666666668,5.555555555555555,38.888888888888886,0,0,0,0
38,50,5.555555555555555,5.555555555555555,38.888888888888886,0,0,0,0
39,38.888888888888886,16.666666666666668,11.11111111111111,33.333333333333336,0,0,0,0
40,38.888888888888886,16.666666666666668,5.555555555555555,38.888888888888886,0,0,0,0
41,50,5.555555555555555,5.555555555555555,38.888888888888886,0,0,0,0
42,50,5.555555555555555,5.555555555555555,38.888888888888886,0,0,0,0
43,38.888888888888886,5.555555555555555,11.11111111111111,38.888888888888886,5.555555555555555,0,0,0
44,44.44444444444444,5.555555555555555,16.666666666666668,27.77777777777778,5.555555555555555,0,0,0
45,38.888888888888886,16.666666666666668,22.22222222222222,16.666666666666668,5.555555555555555,0,0,0
46,44.44444444444444,5.555555555555555,16.666666666666668,27.77777777777778,5.555555555555555,0,0,0
47,38.888888888888886,16.666666666666668,5.555555555555555,38.888888888888886,0,0,0,0
48,44.44444444444444,5.555555555555555,16.666666666666668,27.77777777777778,5.555555555555555,0,0,0
49,38.888888888888886,16.666666666666668,5.555555555555555,38.888888888888886,0,0,0,0