,translate,listen,select,name,judge,form,speak,reverse_speak
1,66.66666666666667,22.22222222222222,0,0,11.11111111111111,0,0,0
2,66.66666666666667,22.22222222222222,0,0,11.11111111111111,0,0,0
3,55.55555555555556,27.77777777777778,0,0,16.666666666666668,0,0,0
4,66.66666666666667,16.666666666666668,0,0,16.666666666666668,0,0,0
5,66.66666666666667,22.22222222222222,0,0,11.11111111111111,0,0,0
6,55.55555555555556,22.22222222222222,0,0,22.22222222222222,0,0,0
7,72.22222222222223,22.22222222222222,0,0,5.555555555555555,0,0,0
8,66.66666666666667,22.22222222222222,0,0,11.11111111111111,0,0,0
9,55.55555555555556,27.77777777777778,0,0,16.666666666666668,0,0,0
10,66.66666666666667,22.22222222222222,0,0,11.11111111111111,0,0,0
11,77.77777777777777,16.666666666666668,0,0,5.555555555555555,0,0,0
12,72.22222222222223,22.22222222222222,0,0,5.555555555555555,0,0,0
13,72.22222222222223,22.22222222222222,0,0,5.555555555555555,0,0,0
14,55.55555555555556,27.77777777777778,0,0,16.666666666666668,0,0,0
15,77.77777777777777,11.11111111111111,0,0,11.11111111111111,0,0,0
16,55.55555555555556,27.77777777777778,0,0,16.666666666666668,0,0,0
17,55.55555555555556,27.77777777777778,0,0,16.666666666666668,0,0,0
18,55.55555555555556,27.77777777777778,0,0,16.666666666666668,0,0,0
19,55.55555555555556,22.22222222222222,0,0,22.22222222222222,0,0,0
20,55.55555555555556,22.22222222222222,0,0,22.22222222222222,0,0,0
21,55.55555555555556,27.77777777777778,0,0,16.666666666666668,0,0,0
22,55.55555555555556,22.22222222222222,0,0,22.22222222222222,0,0,0
23,61.111111111111114,22.22222222222222,0,0,16.666666666666668,0,0,0
24,77.77777777777777,11.11111111111111,0,0,11.11111111111111,0,0,0
25,55.55555555555556,27.77777777777778,0,0,16.666666666666668,0,0,0
26,77.77777777777777,16.666666666666668,0,0,5.555555555555555,0,0,0
27,55.55555555555556,27.77777777777778,0,0,16.666666666666668,0,0,0
28,66.66666666666667,16.666666666666668,0,0,16.666666666666668,0,0,0
29,61.111111111111114,22.22222222222222,0,0,16.666666666666668,0,0,0
30,77.77777777777777,16.666666666666668,0,0,5.555555555555555,0,0,0
31,66.66666666666667,22.22222222222222,0,0,11.11111111111111,0,0,0
32,66.66666666666667,22.22222222222222,0,0,11.11111111111111,0,0,0
33,77.77777777777777,11.11111111111111,0,0,11.11111111111111,0,0,0
34,55.55555555555556,22.22222222222222,0,0,22.22222222222222,0,0,0
35,55.55555555555556,27.77777777777778,0,0,16.666666666666668,0,0,0
36,72.22222222222223,22.22222222222222,0,0,5.555555555555555,0,0,0
37,66.66666666666667,22.22222222222222,0,0,11.11111111111111,0,0,0
38,77.77777777777777,11.11111111111111,0,0,11.11111111111111,0,0,0
39,55.55555555555556,27.77777777777778,0,0,16.666666666666668,0,0,0
40,55.55555555555556,27.77777777777778,0,0,16.666666666666668,0,0,0
41,66.66666666666667,16.666666666666668,0,0,16.666666666666668,0,0,0
42,77.77777777777777,16.666666666666668,0,0,5.555555555555555,0,0,0
43,55.55555555555556,27.77777777777778,0,0,16.666666666666668,0,0,0
44,77.77777777777777,11.11111111111111,0,0,11.11111111111111,0,0,0
45,66.66666666666667,22.22222222222222,0,0,11.11111111111111,0,0,0
46,72.22222222222223,22.22222222222222,0,0,5.555555555555555,0,0,0
47,66.66666666666667,22.22222222222222,0,0,11.11111111111111,0,0,0
48,66.66666666666667,22.22222222222222,0,0,11.11111111111111,0,0,0
49,66.66666666666667,16.666666666666668,0,0,16.666666666666668,0,0,0