,translate,listen,select,name,judge,form,speak,reverse_speak
1,55.55555555555556,27.77777777777778,0,0,11.11111111111111,5.555555555555555,0,0
2,77.77777777777777,5.555555555555555,0,0,5.555555555555555,11.11111111111111,0,0
3,55.55555555555556,33.333333333333336,0,0,11.11111111111111,0,0,0
4,72.22222222222223,16.666666666666668,0,0,0,11.11111111111111,0,0
5,55.55555555555556,27.77777777777778,0,0,0,16.666666666666668,0,0
6,72.22222222222223,22.22222222222222,0,0,0,5.555555555555555,0,0
7,66.66666666666667,22.22222222222222,0,0,5.555555555555555,5.555555555555555,0,0
8,66.66666666666667,27.77777777777778,0,0,5.555555555555555,0,0,0
9,61.111111111111114,22.22222222222222,0,0,0,16.666666666666668,0,0
10,72.22222222222223,22.22222222222222,0,0,5.555555555555555,0,0,0
11,72.22222222222223,5.555555555555555,0,0,11.11111111111111,11.11111111111111,0,0
12,61.111111111111114,16.666666666666668,0,0,22.22222222222222,0,0,0
13,66.66666666666667,16.666666666666668,0,0,5.555555555555555,11.11111111111111,0,0
14,66.66666666666667,16.666666666666668,0,0,5.555555555555555,11.11111111111111,0,0
15,61.111111111111114,22.22222222222222,0,0,5.555555555555555,11.11111111111111,0,0
16,72.22222222222223,22.22222222222222,0,0,0,5.555555555555555,0,0
17,83.33333333333333,11.11111111111111,0,0,0,5.555555555555555,0,0
18,66.66666666666667,16.666666666666668,0,0,11.11111111111111,5.555555555555555,0,0
19,72.22222222222223,11.11111111111111,0,0,11.11111111111111,5.555555555555555,0,0
20,77.77777777777777,0,0,0,11.11111111111111,11.11111111111111,0,0
21,77.77777777777777,11.11111111111111,0,0,5.555555555555555,5.555555555555555,0,0
22,55.55555555555556,22.22222222222222,0,0,11.11111111111111,11.11111111111111,0,0
23,72.22222222222223,22.22222222222222,0,0,0,5.555555555555555,0,0
24,55.55555555555556,38.888888888888886,0,0,5.555555555555555,0,0,0
25,66.66666666666667,22.22222222222222,0,0,11.11111111111111,0,0,0
26,77.77777777777777,11.11111111111111,0,0,11.11111111111111,0,0,0
27,61.111111111111114,22.22222222222222,0,0,11.11111111111111,5.555555555555555,0,0
28,66.66666666666667,16.666666666666668,0,0,11.11111111111111,5.555555555555555,0,0
29,66.66666666666667,27.77777777777778,0,0,5.555555555555555,0,0,0
30,72.22222222222223,16.666666666666668,0,0,11.11111111111111,0,0,0
31,66.66666666666667,16.666666666666668,0,0,11.11111111111111,5.555555555555555,0,0
32,72.22222222222223,0,0,0,11.11111111111111,16.666666666666668,0,0
33,61.111111111111114,11.11111111111111,0,0,11.11111111111111,16.666666666666668,0,0
34,55.55555555555556,22.22222222222222,0,0,16.666666666666668,5.555555555555555,0,0
35,66.66666666666667,22.22222222222222,0,0,5.555555555555555,5.555555555555555,0,0
36,66.66666666666667,27.77777777777778,0,0,0,5.555555555555555,0,0
37,66.66666666666667,16.666666666666668,0,0,5.555555555555555,11.11111111111111,0,0
38,72.22222222222223,11.11111111111111,0,0,16.666666666666668,0,0,0
39,66.66666666666667,22.22222222222222,0,0,0,11.11111111111111,0,0
40,72.22222222222223,11.11111111111111,0,0,5.555555555555555,11.11111111111111,0,0
41,77.77777777777777,5.555555555555555,0,0,16.666666666666668,0,0,0
42,61.111111111111114,22.22222222222222,0,0,16.666666666666668,0,0,0
43,72.22222222222223,22.22222222222222,0,0,5.555555555555555,0,0,0
44,66.66666666666667,22.22222222222222,0,0,5.555555555555555,5.555555555555555,0,0
45,72.22222222222223,11.11111111111111,0,0,5.555555555555555,11.11111111111111,0,0
46,61.111111111111114,11.11111111111111,0,0,16.666666666666668,11.11111111111111,0,0
47,61.111111111111114,33.333333333333336,0,0,5.555555555555555,0,0,0
48,66.66666666666667,11.11111111111111,0,0,11.11111111111111,11.11111111111111,0,0
49,66.66666666666667,22.22222222222222,0,0,0,11.11111111111111,0,0