,translate,listen,select,name,judge,form,speak,reverse_speak
1,61.111111111111114,16.666666666666668,0,0,0,22.22222222222222,0,0
2,44.44444444444444,11.11111111111111,0,0,0,44.44444444444444,0,0
3,72.22222222222223,16.666666666666668,0,0,0,11.11111111111111,0,0
4,38.888888888888886,22.22222222222222,0,0,5.555555555555555,33.333333333333336,0,0
5,55.55555555555556,33.333333333333336,0,0,0,11.11111111111111,0,0
6,66.66666666666667,22.22222222222222,0,0,5.555555555555555,5.555555555555555,0,0
7,72.22222222222223,5.555555555555555,0,0,5.555555555555555,16.666666666666668,0,0
8,66.66666666666667,16.666666666666668,0,0,0,16.666666666666668,0,0
9,61.111111111111114,11.11111111111111,0,0,0,27.77777777777778,0,0
10,61.111111111111114,27.77777777777778,0,0,5.555555555555555,5.555555555555555,0,0
11,61.111111111111114,5.555555555555555,0,0,0,33.333333333333336,0,0
12,61.111111111111114,16.666666666666668,0,0,5.555555555555555,16.666666666666668,0,0
13,66.66666666666667,11.11111111111111,0,0,11.11111111111111,11.11111111111111,0,0
14,72.22222222222223,11.11111111111111,0,0,11.11111111111111,5.555555555555555,0,0
15,66.66666666666667,11.11111111111111,0,0,0,22.22222222222222,0,0
16,61.111111111111114,11.11111111111111,0,0,11.11111111111111,16.666666666666668,0,0
17,50,27.77777777777778,0,0,0,22.22222222222222,0,0
18,55.55555555555556,16.666666666666668,0,0,0,27.77777777777778,0,0
19,50,16.666666666666668,0,0,0,33.333333333333336,0,0
20,55.55555555555556,11.11111111111111,0,0,0,33.333333333333336,0,0
21,72.22222222222223,11.11111111111111,0,0,0,16.666666666666668,0,0
22,72.22222222222223,11.11111111111111,0,0,0,16.666666666666668,0,0
23,66.66666666666667,22.22222222222222,0,0,0,11.11111111111111,0,0
24,61.111111111111114,16.666666666666668,0,0,5.555555555555555,16.666666666666668,0,0
25,55.55555555555556,22.22222222222222,0,0,5.555555555555555,16.666666666666668,0,0
26,66.66666666666667,22.22222222222222,0,0,0,11.11111111111111,0,0
27,66.66666666666667,5.555555555555555,0,0,5.555555555555555,22.22222222222222,0,0
28,66.66666666666667,16.666666666666668,0,0,5.555555555555555,11.11111111111111,0,0
29,61.111111111111114,11.11111111111111,0,0,0,27.77777777777778,0,0
30,66.66666666666667,5.555555555555555,0,0,5.555555555555555,22.22222222222222,0,0
31,72.22222222222223,22.22222222222222,0,0,0,5.555555555555555,0,0
32,72.22222222222223,16.666666666666668,0,0,0,11.11111111111111,0,0
33,72.22222222222223,16.666666666666668,0,0,0,11.11111111111111,0,0
34,61.111111111111114,22.22222222222222,0,0,0,16.666666666666668,0,0
35,61.111111111111114,11.11111111111111,0,0,5.555555555555555,22.22222222222222,0,0
36,61.111111111111114,16.666666666666668,0,0,0,22.22222222222222,0,0
37,61.111111111111114,16.666666666666668,0,0,0,22.22222222222222,0,0
38,66.66666666666667,11.11111111111111,0,0,5.555555555555555,16.666666666666668,0,0
39,55.55555555555556,22.22222222222222,0,0,11.11111111111111,11.11111111111111,0,0
40,61.111111111111114,11.11111111111111,0,0,11.11111111111111,16.666666666666668,0,0
41,66.66666666666667,16.666666666666668,0,0,0,16.666666666666668,0,0
42,66.66666666666667,22.22222222222222,0,0,5.555555555555555,5.555555555555555,0,0
43,72.22222222222223,11.11111111111111,0,0,5.555555555555555,11.11111111111111,0,0
44,55.55555555555556,22.22222222222222,0,0,5.555555555555555,16.666666666666668,0,0
45,55.55555555555556,22.22222222222222,0,0,0,22.22222222222222,0,0
46,61.111111111111114,22.22222222222222,0,0,0,16.666666666666668,0,0
47,61.111111111111114,11.11111111111111,0,0,0,27.77777777777778,0,0
48,55.55555555555556,27.77777777777778,0,0,0,16.666666666666668,0,0
49,66.66666666666667,11.11111111111111,0,0,0,22.22222222222222,0,0