,translate,listen,select,name,judge,form,speak,reverse_speak
1,66.66666666666667,22.22222222222222,0,0,11.11111111111111,0,0,0
2,66.66666666666667,22.22222222222222,0,0,11.11111111111111,0,0,0
3,66.66666666666667,33.333333333333336,0,0,0,0,0,0
4,77.77777777777777,22.22222222222222,0,0,0,0,0,0
5,66.66666666666667,27.77777777777778,0,0,5.555555555555555,0,0,0
6,72.22222222222223,22.22222222222222,0,0,5.555555555555555,0,0,0
7,77.77777777777777,22.22222222222222,0,0,0,0,0,0
8,77.77777777777777,16.666666666666668,0,0,5.555555555555555,0,0,0
9,66.66666666666667,22.22222222222222,0,0,11.11111111111111,0,0,0
10,77.77777777777777,16.666666666666668,0,0,5.555555555555555,0,0,0
11,66.66666666666667,27.77777777777778,0,0,5.555555555555555,0,0,0
12,66.66666666666667,22.22222222222222,0,0,11.11111111111111,0,0,0
13,66.66666666666667,22.22222222222222,0,0,11.11111111111111,0,0,0
14,77.77777777777777,16.666666666666668,0,0,5.555555555555555,0,0,0
15,77.77777777777777,22.22222222222222,0,0,0,0,0,0
16,66.66666666666667,27.77777777777778,0,0,5.555555555555555,0,0,0
17,72.22222222222223,22.22222222222222,0,0,5.555555555555555,0,0,0
18,66.66666666666667,33.333333333333336,0,0,0,0,0,0
19,83.33333333333333,11.11111111111111,0,0,5.555555555555555,0,0,0
20,77.77777777777777,22.22222222222222,0,0,0,0,0,0
21,77.77777777777777,16.666666666666668,0,0,5.555555555555555,0,0,0
22,77.77777777777777,22.22222222222222,0,0,0,0,0,0
23,77.77777777777777,16.666666666666668,0,0,5.555555555555555,0,0,0
24,66.66666666666667,27.77777777777778,0,0,5.555555555555555,0,0,0
25,77.77777777777777,16.666666666666668,0,0,5.555555555555555,0,0,0
26,77.77777777777777,16.666666666666668,0,0,5.555555555555555,0,0,0
27,72.22222222222223,22.22222222222222,0,0,5.555555555555555,0,0,0
28,72.22222222222223,22.22222222222222,0,0,5.555555555555555,0,0,0
29,66.66666666666667,22.22222222222222,0,0,11.11111111111111,0,0,0
30,77.77777777777777,16.666666666666668,0,0,5.555555555555555,0,0,0
31,83.33333333333333,11.11111111111111,0,0,5.555555555555555,0,0,0
32,77.77777777777777,22.22222222222222,0,0,0,0,0,0
33,72.22222222222223,22.22222222222222,0,0,5.555555555555555,0,0,0
34,83.33333333333333,11.11111111111111,0,0,5.555555555555555,0,0,0
35,77.77777777777777,22.22222222222222,0,0,0,0,0,0
36,61.111111111111114,38.888888888888886,0,0,0,0,0,0
37,66.66666666666667,33.333333333333336,0,0,0,0,0,0
38,83.33333333333333,11.11111111111111,0,0,5.555555555555555,0,0,0
39,66.66666666666667,27.77777777777778,0,0,5.555555555555555,0,0,0
40,77.77777777777777,22.22222222222222,0,0,0,0,0,0
41,66.66666666666667,27.77777777777778,0,0,5.555555555555555,0,0,0
42,66.66666666666667,27.77777777777778,0,0,5.555555555555555,0,0,0
43,66.66666666666667,33.333333333333336,0,0,0,0,0,0
44,66.66666666666667,33.333333333333336,0,0,0,0,0,0
45,77.77777777777777,16.666666666666668,0,0,5.555555555555555,0,0,0
46,61.111111111111114,38.888888888888886,0,0,0,0,0,0
47,72.22222222222223,22.22222222222222,0,0,5.555555555555555,0,0,0
48,77.77777777777777,22.22222222222222,0,0,0,0,0,0
49,83.33333333333333,11.11111111111111,0,0,5.555555555555555,0,0,0